{ "photos": {
    "page": 1,
    "pages": 14,
    "perpage": 10,
    "total": "132",
    "photo": [
        {
            "id": "8716439701",
            "owner": "63849524@N02",
            "secret": "4dcc2cb357",
            "server": "7448",
            "farm": 8,
            "title": "Happy Moment",
            "ispublic": 1,
            "isfriend": 0,
            "isfamily": 0,
            "license": 0,
            "description": {
                "_content": "                               "
            },
            "dateupload": "1367929437",
            "lastupdate": "1398774329",
            "datetaken": "2013-05-07 01:18:43",
            "datetakengranularity": 0,
            "datepersonadded": "1367983810",
            "ownername": "Ahmed Eather",
            "iconserver": "8270",
            "iconfarm": 9,
            "views": "134",
            "tags": "",
            "machine_tags": "",
            "latitude": 0,
            "longitude": 0,
            "accuracy": 0,
            "context": 0,
            "media": "photo",
            "media_status": "ready",
            "url_sq": "https:\/\/farm8.staticflickr.com\/7448\/8716439701_4dcc2cb357_s.jpg",
            "height_sq": 75,
            "width_sq": 75,
            "url_t": "https:\/\/farm8.staticflickr.com\/7448\/8716439701_4dcc2cb357_t.jpg",
            "height_t": 69,
            "width_t": 100,
            "url_s": "https:\/\/farm8.staticflickr.com\/7448\/8716439701_4dcc2cb357_m.jpg",
            "height_s": "167",
            "width_s": "240",
            "url_q": "https:\/\/farm8.staticflickr.com\/7448\/8716439701_4dcc2cb357_q.jpg",
            "height_q": "150",
            "width_q": "150",
            "url_m": "https:\/\/farm8.staticflickr.com\/7448\/8716439701_4dcc2cb357.jpg",
            "height_m": "347",
            "width_m": "500",
            "url_n": "https:\/\/farm8.staticflickr.com\/7448\/8716439701_4dcc2cb357_n.jpg",
            "height_n": "222",
            "width_n": "320",
            "url_z": "https:\/\/farm8.staticflickr.com\/7448\/8716439701_4dcc2cb357_z.jpg",
            "height_z": "444",
            "width_z": "640",
            "url_c": "https:\/\/farm8.staticflickr.com\/7448\/8716439701_4dcc2cb357_c.jpg",
            "height_c": "555",
            "width_c": "800",
            "url_l": "https:\/\/farm8.staticflickr.com\/7448\/8716439701_4dcc2cb357_b.jpg",
            "height_l": "711",
            "width_l": "1024",
            "pathalias": "eatherahmed"
        },
        {
            "id": "8693997352",
            "owner": "67101477@N00",
            "secret": "8af1e4832b",
            "server": "8119",
            "farm": 9,
            "title": "I see you Jeremy Brooks",
            "ispublic": 1,
            "isfriend": 0,
            "isfamily": 0,
            "license": 0,
            "description": {
                "_content": ""
            },
            "o_width": "3264",
            "o_height": "2448",
            "dateupload": "1367264059",
            "lastupdate": "1367368095",
            "datetaken": "2013-04-29 12:34:12",
            "datetakengranularity": 0,
            "datepersonadded": "1367264094",
            "ownername": "protohiro",
            "iconserver": "2843",
            "iconfarm": 3,
            "views": "432",
            "tags": "uploaded:by=flickrmobile flickriosapp:filter=nofilter",
            "machine_tags": "flickriosapp:filter=nofilter uploaded:by=flickrmobile",
            "originalsecret": "a6676e6108",
            "originalformat": "jpg",
            "latitude": 37.794833,
            "longitude": -122.403,
            "accuracy": 16,
            "context": 0,
            "place_id": "GddgqTpTUb8LgT93hw",
            "woeid": "23512022",
            "geo_is_family": 0,
            "geo_is_friend": 0,
            "geo_is_contact": 0,
            "geo_is_public": 1,
            "media": "photo",
            "media_status": "ready",
            "url_sq": "https:\/\/farm9.staticflickr.com\/8119\/8693997352_8af1e4832b_s.jpg",
            "height_sq": 75,
            "width_sq": 75,
            "url_t": "https:\/\/farm9.staticflickr.com\/8119\/8693997352_8af1e4832b_t.jpg",
            "height_t": 100,
            "width_t": 75,
            "url_s": "https:\/\/farm9.staticflickr.com\/8119\/8693997352_8af1e4832b_m.jpg",
            "height_s": "240",
            "width_s": "180",
            "url_q": "https:\/\/farm9.staticflickr.com\/8119\/8693997352_8af1e4832b_q.jpg",
            "height_q": "150",
            "width_q": "150",
            "url_m": "https:\/\/farm9.staticflickr.com\/8119\/8693997352_8af1e4832b.jpg",
            "height_m": "500",
            "width_m": "375",
            "url_n": "https:\/\/farm9.staticflickr.com\/8119\/8693997352_8af1e4832b_n.jpg",
            "height_n": "320",
            "width_n": "240",
            "url_z": "https:\/\/farm9.staticflickr.com\/8119\/8693997352_8af1e4832b_z.jpg",
            "height_z": "640",
            "width_z": "480",
            "url_c": "https:\/\/farm9.staticflickr.com\/8119\/8693997352_8af1e4832b_c.jpg",
            "height_c": "800",
            "width_c": "600",
            "url_l": "https:\/\/farm9.staticflickr.com\/8119\/8693997352_8af1e4832b_b.jpg",
            "height_l": "1024",
            "width_l": "768",
            "url_o": "https:\/\/farm9.staticflickr.com\/8119\/8693997352_a6676e6108_o.jpg",
            "height_o": "2448",
            "width_o": "3264",
            "pathalias": "protohiro"
        },
        {
            "id": "8575911969",
            "owner": "30989519@N03",
            "secret": "93fb56c443",
            "server": "8088",
            "farm": 9,
            "title": "IMG_4678",
            "ispublic": 1,
            "isfriend": 0,
            "isfamily": 0,
            "license": 0,
            "description": {
                "_content": ""
            },
            "o_width": "3999",
            "o_height": "2812",
            "dateupload": "1363843634",
            "lastupdate": "1363844026",
            "datetaken": "2013-01-12 13:49:54",
            "datetakengranularity": 0,
            "datepersonadded": "1363844107",
            "ownername": "DianaLBrks",
            "iconserver": "3030",
            "iconfarm": 4,
            "views": 82,
            "tags": "",
            "machine_tags": "",
            "originalsecret": "93d84b8048",
            "originalformat": "jpg",
            "latitude": 0,
            "longitude": 0,
            "accuracy": 0,
            "context": 0,
            "media": "photo",
            "media_status": "ready",
            "url_sq": "https:\/\/farm9.staticflickr.com\/8088\/8575911969_93fb56c443_s.jpg",
            "height_sq": 75,
            "width_sq": 75,
            "url_t": "https:\/\/farm9.staticflickr.com\/8088\/8575911969_93fb56c443_t.jpg",
            "height_t": 70,
            "width_t": 100,
            "url_s": "https:\/\/farm9.staticflickr.com\/8088\/8575911969_93fb56c443_m.jpg",
            "height_s": "169",
            "width_s": "240",
            "url_q": "https:\/\/farm9.staticflickr.com\/8088\/8575911969_93fb56c443_q.jpg",
            "height_q": "150",
            "width_q": "150",
            "url_m": "https:\/\/farm9.staticflickr.com\/8088\/8575911969_93fb56c443.jpg",
            "height_m": "352",
            "width_m": "500",
            "url_n": "https:\/\/farm9.staticflickr.com\/8088\/8575911969_93fb56c443_n.jpg",
            "height_n": "225",
            "width_n": "320",
            "url_z": "https:\/\/farm9.staticflickr.com\/8088\/8575911969_93fb56c443_z.jpg",
            "height_z": "450",
            "width_z": "640",
            "url_c": "https:\/\/farm9.staticflickr.com\/8088\/8575911969_93fb56c443_c.jpg",
            "height_c": "563",
            "width_c": "800",
            "url_l": "https:\/\/farm9.staticflickr.com\/8088\/8575911969_93fb56c443_b.jpg",
            "height_l": "720",
            "width_l": "1024",
            "url_o": "https:\/\/farm9.staticflickr.com\/8088\/8575911969_93d84b8048_o.jpg",
            "height_o": "2812",
            "width_o": "3999",
            "pathalias": ""
        },
        {
            "id": "8554082210",
            "owner": "30989519@N03",
            "secret": "4de12e87e4",
            "server": "8252",
            "farm": 9,
            "title": "The Thinkers",
            "ispublic": 1,
            "isfriend": 0,
            "isfamily": 0,
            "license": 0,
            "description": {
                "_content": ""
            },
            "o_width": "3665",
            "o_height": "2917",
            "dateupload": "1363150885",
            "lastupdate": "1363360248",
            "datetaken": "2013-01-12 14:01:55",
            "datetakengranularity": 0,
            "datepersonadded": "1363151223",
            "ownername": "DianaLBrks",
            "iconserver": "3030",
            "iconfarm": 4,
            "views": 78,
            "tags": "family people blackandwhite art nevada reno nevadamuseumofart",
            "machine_tags": "",
            "originalsecret": "a7c1c01728",
            "originalformat": "jpg",
            "latitude": 0,
            "longitude": 0,
            "accuracy": 0,
            "context": 0,
            "media": "photo",
            "media_status": "ready",
            "url_sq": "https:\/\/farm9.staticflickr.com\/8252\/8554082210_4de12e87e4_s.jpg",
            "height_sq": 75,
            "width_sq": 75,
            "url_t": "https:\/\/farm9.staticflickr.com\/8252\/8554082210_4de12e87e4_t.jpg",
            "height_t": 80,
            "width_t": 100,
            "url_s": "https:\/\/farm9.staticflickr.com\/8252\/8554082210_4de12e87e4_m.jpg",
            "height_s": "191",
            "width_s": "240",
            "url_q": "https:\/\/farm9.staticflickr.com\/8252\/8554082210_4de12e87e4_q.jpg",
            "height_q": "150",
            "width_q": "150",
            "url_m": "https:\/\/farm9.staticflickr.com\/8252\/8554082210_4de12e87e4.jpg",
            "height_m": "398",
            "width_m": "500",
            "url_n": "https:\/\/farm9.staticflickr.com\/8252\/8554082210_4de12e87e4_n.jpg",
            "height_n": "255",
            "width_n": "320",
            "url_z": "https:\/\/farm9.staticflickr.com\/8252\/8554082210_4de12e87e4_z.jpg",
            "height_z": "509",
            "width_z": "640",
            "url_c": "https:\/\/farm9.staticflickr.com\/8252\/8554082210_4de12e87e4_c.jpg",
            "height_c": "637",
            "width_c": "800",
            "url_l": "https:\/\/farm9.staticflickr.com\/8252\/8554082210_4de12e87e4_b.jpg",
            "height_l": "815",
            "width_l": "1024",
            "url_o": "https:\/\/farm9.staticflickr.com\/8252\/8554082210_a7c1c01728_o.jpg",
            "height_o": "2917",
            "width_o": "3665",
            "pathalias": ""
        },
        {
            "id": "8551254268",
            "owner": "30989519@N03",
            "secret": "724e7c71d7",
            "server": "8384",
            "farm": 9,
            "title": "Neon Enthusiast",
            "ispublic": 1,
            "isfriend": 0,
            "isfamily": 0,
            "license": 0,
            "description": {
                "_content": ""
            },
            "o_width": "2821",
            "o_height": "3762",
            "dateupload": "1363074797",
            "lastupdate": "1363176759",
            "datetaken": "2013-01-12 12:33:25",
            "datetakengranularity": 0,
            "datepersonadded": "1363075541",
            "ownername": "DianaLBrks",
            "iconserver": "3030",
            "iconfarm": 4,
            "views": 62,
            "tags": "signs vintage neon photographer motel reno merrywinkmotel",
            "machine_tags": "",
            "originalsecret": "002ba0250e",
            "originalformat": "jpg",
            "latitude": 0,
            "longitude": 0,
            "accuracy": 0,
            "context": 0,
            "media": "photo",
            "media_status": "ready",
            "url_sq": "https:\/\/farm9.staticflickr.com\/8384\/8551254268_724e7c71d7_s.jpg",
            "height_sq": 75,
            "width_sq": 75,
            "url_t": "https:\/\/farm9.staticflickr.com\/8384\/8551254268_724e7c71d7_t.jpg",
            "height_t": 100,
            "width_t": 75,
            "url_s": "https:\/\/farm9.staticflickr.com\/8384\/8551254268_724e7c71d7_m.jpg",
            "height_s": "240",
            "width_s": "180",
            "url_q": "https:\/\/farm9.staticflickr.com\/8384\/8551254268_724e7c71d7_q.jpg",
            "height_q": "150",
            "width_q": "150",
            "url_m": "https:\/\/farm9.staticflickr.com\/8384\/8551254268_724e7c71d7.jpg",
            "height_m": "500",
            "width_m": "375",
            "url_n": "https:\/\/farm9.staticflickr.com\/8384\/8551254268_724e7c71d7_n.jpg",
            "height_n": "320",
            "width_n": "240",
            "url_z": "https:\/\/farm9.staticflickr.com\/8384\/8551254268_724e7c71d7_z.jpg",
            "height_z": "640",
            "width_z": "480",
            "url_c": "https:\/\/farm9.staticflickr.com\/8384\/8551254268_724e7c71d7_c.jpg",
            "height_c": "800",
            "width_c": "600",
            "url_l": "https:\/\/farm9.staticflickr.com\/8384\/8551254268_724e7c71d7_b.jpg",
            "height_l": "1024",
            "width_l": "768",
            "url_o": "https:\/\/farm9.staticflickr.com\/8384\/8551254268_002ba0250e_o.jpg",
            "height_o": "3762",
            "width_o": "2821",
            "pathalias": ""
        },
        {
            "id": "8527524649",
            "owner": "88678245@N02",
            "secret": "7d96009eda",
            "server": "8514",
            "farm": 9,
            "title": "Motor Club of America**** I made $977 in one WEEK!!!",
            "ispublic": 1,
            "isfriend": 0,
            "isfamily": 0,
            "license": 0,
            "description": {
                "_content": "Website: <a href=\"http:\/\/www.mcaultimatesuccess.com\" rel=\"nofollow\">www.mcaultimatesuccess.com<\/a>\n\nEmail: javiermom116@gmail.com\n\nTurn $40 into $100's by next week!!!"
            },
            "dateupload": "1362411958",
            "lastupdate": "1396203917",
            "datetaken": "2013-03-04 07:45:58",
            "datetakengranularity": 0,
            "datepersonadded": "1362411958",
            "ownername": "cgaskin",
            "iconserver": "8368",
            "iconfarm": 9,
            "views": "252",
            "tags": "from home work spring mca beyonce 2013 earnmoneyonline motorclubofamerica howtoearncash",
            "machine_tags": "",
            "originalsecret": "92baef8a83",
            "originalformat": "jpg",
            "latitude": 0,
            "longitude": 0,
            "accuracy": 0,
            "context": 0,
            "media": "video",
            "media_status": "ready",
            "url_sq": "https:\/\/farm9.staticflickr.com\/8514\/8527524649_7d96009eda_s.jpg",
            "height_sq": 75,
            "width_sq": 75,
            "url_t": "https:\/\/farm9.staticflickr.com\/8514\/8527524649_7d96009eda_t.jpg",
            "height_t": 75,
            "width_t": 100,
            "url_s": "https:\/\/farm9.staticflickr.com\/8514\/8527524649_7d96009eda_m.jpg",
            "height_s": "180",
            "width_s": "240",
            "url_q": "https:\/\/farm9.staticflickr.com\/8514\/8527524649_7d96009eda_q.jpg",
            "height_q": "150",
            "width_q": "150",
            "url_m": "https:\/\/farm9.staticflickr.com\/8514\/8527524649_7d96009eda.jpg",
            "height_m": "375",
            "width_m": "500",
            "url_n": "https:\/\/farm9.staticflickr.com\/8514\/8527524649_7d96009eda_n.jpg",
            "height_n": "240",
            "width_n": "320",
            "url_z": "https:\/\/farm9.staticflickr.com\/8514\/8527524649_7d96009eda_z.jpg",
            "height_z": "480",
            "width_z": "640",
            "url_o": "https:\/\/farm9.staticflickr.com\/8514\/8527524649_92baef8a83_o.jpg",
            "height_o": "480",
            "width_o": "640",
            "pathalias": "mcamoneymaker"
        },
        {
            "id": "8368317677",
            "owner": "85853333@N00",
            "secret": "f97fd282a3",
            "server": "8222",
            "farm": 9,
            "title": "Bay Cruise Portrait",
            "ispublic": 1,
            "isfriend": 0,
            "isfamily": 0,
            "license": 2,
            "description": {
                "_content": ""
            },
            "o_width": "3264",
            "o_height": "2448",
            "dateupload": "1357868637",
            "lastupdate": "1362556819",
            "datetaken": "2012-09-20 19:36:20",
            "datetakengranularity": 0,
            "datepersonadded": "1357868871",
            "ownername": "Jeremy Brooks",
            "iconserver": "5332",
            "iconfarm": 6,
            "views": "263",
            "tags": "sanfrancisco california bridge sunset portrait people usa goldengatebridge goldengate iphone sanfranciscocounty jeremybrooks melissabrooks",
            "machine_tags": "",
            "originalsecret": "769ec8ee82",
            "originalformat": "jpg",
            "latitude": 0,
            "longitude": 0,
            "accuracy": 0,
            "context": 0,
            "media": "photo",
            "media_status": "ready",
            "url_sq": "https:\/\/farm9.staticflickr.com\/8222\/8368317677_f97fd282a3_s.jpg",
            "height_sq": 75,
            "width_sq": 75,
            "url_t": "https:\/\/farm9.staticflickr.com\/8222\/8368317677_f97fd282a3_t.jpg",
            "height_t": 75,
            "width_t": 100,
            "url_s": "https:\/\/farm9.staticflickr.com\/8222\/8368317677_f97fd282a3_m.jpg",
            "height_s": "180",
            "width_s": "240",
            "url_q": "https:\/\/farm9.staticflickr.com\/8222\/8368317677_f97fd282a3_q.jpg",
            "height_q": "150",
            "width_q": "150",
            "url_m": "https:\/\/farm9.staticflickr.com\/8222\/8368317677_f97fd282a3.jpg",
            "height_m": "375",
            "width_m": "500",
            "url_n": "https:\/\/farm9.staticflickr.com\/8222\/8368317677_f97fd282a3_n.jpg",
            "height_n": "240",
            "width_n": "320",
            "url_z": "https:\/\/farm9.staticflickr.com\/8222\/8368317677_f97fd282a3_z.jpg",
            "height_z": "480",
            "width_z": "640",
            "url_c": "https:\/\/farm9.staticflickr.com\/8222\/8368317677_f97fd282a3_c.jpg",
            "height_c": "600",
            "width_c": "800",
            "url_l": "https:\/\/farm9.staticflickr.com\/8222\/8368317677_f97fd282a3_b.jpg",
            "height_l": "768",
            "width_l": "1024",
            "url_o": "https:\/\/farm9.staticflickr.com\/8222\/8368317677_769ec8ee82_o.jpg",
            "height_o": "2448",
            "width_o": "3264",
            "pathalias": "jeremybrooks"
        },
        {
            "id": "8226857717",
            "owner": "65802182@N00",
            "secret": "360b76aca2",
            "server": "8057",
            "farm": 9,
            "title": "Brooks and Jensen",
            "ispublic": 1,
            "isfriend": 0,
            "isfamily": 0,
            "license": 5,
            "description": {
                "_content": "LC- Wide with Tri-X. "
            },
            "o_width": "1362",
            "o_height": "908",
            "dateupload": "1354128403",
            "lastupdate": "1354599097",
            "datetaken": "2012-11-28 10:46:43",
            "datetakengranularity": 0,
            "datepersonadded": "1354128892",
            "ownername": "docpop",
            "iconserver": "8408",
            "iconfarm": 9,
            "views": "204",
            "tags": "station sutter lcawidelomolomographyarista400trxsanfranciscostreet",
            "machine_tags": "",
            "originalsecret": "c86d63c61e",
            "originalformat": "jpg",
            "latitude": 0,
            "longitude": 0,
            "accuracy": 0,
            "context": 0,
            "media": "photo",
            "media_status": "ready",
            "url_sq": "https:\/\/farm9.staticflickr.com\/8057\/8226857717_360b76aca2_s.jpg",
            "height_sq": 75,
            "width_sq": 75,
            "url_t": "https:\/\/farm9.staticflickr.com\/8057\/8226857717_360b76aca2_t.jpg",
            "height_t": 67,
            "width_t": 100,
            "url_s": "https:\/\/farm9.staticflickr.com\/8057\/8226857717_360b76aca2_m.jpg",
            "height_s": "160",
            "width_s": "240",
            "url_q": "https:\/\/farm9.staticflickr.com\/8057\/8226857717_360b76aca2_q.jpg",
            "height_q": "150",
            "width_q": "150",
            "url_m": "https:\/\/farm9.staticflickr.com\/8057\/8226857717_360b76aca2.jpg",
            "height_m": "333",
            "width_m": "500",
            "url_n": "https:\/\/farm9.staticflickr.com\/8057\/8226857717_360b76aca2_n.jpg",
            "height_n": "213",
            "width_n": "320",
            "url_z": "https:\/\/farm9.staticflickr.com\/8057\/8226857717_360b76aca2_z.jpg",
            "height_z": "427",
            "width_z": "640",
            "url_c": "https:\/\/farm9.staticflickr.com\/8057\/8226857717_360b76aca2_c.jpg",
            "height_c": "534",
            "width_c": "800",
            "url_l": "https:\/\/farm9.staticflickr.com\/8057\/8226857717_360b76aca2_b.jpg",
            "height_l": "683",
            "width_l": "1024",
            "url_o": "https:\/\/farm9.staticflickr.com\/8057\/8226857717_c86d63c61e_o.jpg",
            "height_o": "908",
            "width_o": "1362",
            "pathalias": "docpopular"
        },
        {
            "id": "6643433715",
            "owner": "65802182@N00",
            "secret": "4ac897e2e6",
            "server": "7141",
            "farm": 8,
            "title": "Lomo prints",
            "ispublic": 1,
            "isfriend": 0,
            "isfamily": 0,
            "license": 2,
            "description": {
                "_content": "Shot with my Diana from Lomography and with light post processing on my iPhone."
            },
            "o_width": "888",
            "o_height": "888",
            "dateupload": "1325800125",
            "lastupdate": "1353862376",
            "datetaken": "2012-01-05 13:48:45",
            "datetakengranularity": 0,
            "datepersonadded": "1325804741",
            "ownername": "docpop",
            "iconserver": "8408",
            "iconfarm": 9,
            "views": "174",
            "tags": "sanfrancisco camera 120 film analog vintage toy lomo lomography crossprocess diana ringflash iphone lomographysf",
            "machine_tags": "",
            "originalsecret": "4c07b272c4",
            "originalformat": "jpg",
            "latitude": 0,
            "longitude": 0,
            "accuracy": 0,
            "context": 0,
            "media": "photo",
            "media_status": "ready",
            "url_sq": "https:\/\/farm8.staticflickr.com\/7141\/6643433715_4ac897e2e6_s.jpg",
            "height_sq": 75,
            "width_sq": 75,
            "url_t": "https:\/\/farm8.staticflickr.com\/7141\/6643433715_4ac897e2e6_t.jpg",
            "height_t": 100,
            "width_t": 100,
            "url_s": "https:\/\/farm8.staticflickr.com\/7141\/6643433715_4ac897e2e6_m.jpg",
            "height_s": "240",
            "width_s": "240",
            "url_q": "https:\/\/farm8.staticflickr.com\/7141\/6643433715_4ac897e2e6_q.jpg",
            "height_q": "150",
            "width_q": "150",
            "url_m": "https:\/\/farm8.staticflickr.com\/7141\/6643433715_4ac897e2e6.jpg",
            "height_m": "500",
            "width_m": "500",
            "url_n": "https:\/\/farm8.staticflickr.com\/7141\/6643433715_4ac897e2e6_n.jpg",
            "height_n": "320",
            "width_n": "320",
            "url_z": "https:\/\/farm8.staticflickr.com\/7141\/6643433715_4ac897e2e6_z.jpg",
            "height_z": "640",
            "width_z": "640",
            "url_l": "https:\/\/farm8.staticflickr.com\/7141\/6643433715_4ac897e2e6_b.jpg",
            "height_l": "888",
            "width_l": "888",
            "url_o": "https:\/\/farm8.staticflickr.com\/7141\/6643433715_4c07b272c4_o.jpg",
            "height_o": "888",
            "width_o": "888",
            "pathalias": "docpopular"
        },
        {
            "id": "6643452505",
            "owner": "65802182@N00",
            "secret": "0a767e5b79",
            "server": "7165",
            "farm": 8,
            "title": "Lomo Prints",
            "ispublic": 1,
            "isfriend": 0,
            "isfamily": 0,
            "license": 2,
            "description": {
                "_content": "Shot with my Diana from Lomography and with light post processing on my iPhone."
            },
            "o_width": "902",
            "o_height": "902",
            "dateupload": "1325800346",
            "lastupdate": "1353862377",
            "datetaken": "1969-12-31 15:59:59",
            "datetakengranularity": 0,
            "datepersonadded": "1325804656",
            "ownername": "docpop",
            "iconserver": "8408",
            "iconfarm": 9,
            "views": "199",
            "tags": "sanfrancisco camera 120 film analog vintage toy lomo lomography crossprocess diana ringflash iphone lomographysf",
            "machine_tags": "",
            "originalsecret": "241007c7e2",
            "originalformat": "jpg",
            "latitude": 0,
            "longitude": 0,
            "accuracy": 0,
            "context": 0,
            "media": "photo",
            "media_status": "ready",
            "url_sq": "https:\/\/farm8.staticflickr.com\/7165\/6643452505_0a767e5b79_s.jpg",
            "height_sq": 75,
            "width_sq": 75,
            "url_t": "https:\/\/farm8.staticflickr.com\/7165\/6643452505_0a767e5b79_t.jpg",
            "height_t": 100,
            "width_t": 100,
            "url_s": "https:\/\/farm8.staticflickr.com\/7165\/6643452505_0a767e5b79_m.jpg",
            "height_s": "240",
            "width_s": "240",
            "url_q": "https:\/\/farm8.staticflickr.com\/7165\/6643452505_0a767e5b79_q.jpg",
            "height_q": "150",
            "width_q": "150",
            "url_m": "https:\/\/farm8.staticflickr.com\/7165\/6643452505_0a767e5b79.jpg",
            "height_m": "500",
            "width_m": "500",
            "url_n": "https:\/\/farm8.staticflickr.com\/7165\/6643452505_0a767e5b79_n.jpg",
            "height_n": "320",
            "width_n": "320",
            "url_z": "https:\/\/farm8.staticflickr.com\/7165\/6643452505_0a767e5b79_z.jpg",
            "height_z": "640",
            "width_z": "640",
            "url_l": "https:\/\/farm8.staticflickr.com\/7165\/6643452505_0a767e5b79_b.jpg",
            "height_l": "902",
            "width_l": "902",
            "url_o": "https:\/\/farm8.staticflickr.com\/7165\/6643452505_241007c7e2_o.jpg",
            "height_o": "902",
            "width_o": "902",
            "pathalias": "docpopular"
        }
    ],
    "has_next_page": 1
}, "stat": "ok" }