{ "photos": {
    "page": 2,
    "pages": 5,
    "perpage": 10,
    "total": 45,
    "photo": [
        {
            "id": "14090163898",
            "owner": "124857539@N03",
            "secret": "bf06719947",
            "server": "3797",
            "farm": 4,
            "title": "La Sombra Rotoporky",
            "ispublic": 1,
            "isfriend": 0,
            "isfamily": 0,
            "license": 0,
            "description": {
                "_content": ""
            },
            "dateupload": "1401132433",
            "lastupdate": "1401132439",
            "datetaken": "2013-03-22 21:36:50",
            "datetakengranularity": 0,
            "ownername": "jinxlib",
            "iconserver": "5538",
            "iconfarm": 6,
            "views": 14,
            "tags": "blackandwhite bw poster blackwhite iceland interior room reykjavik luchadores",
            "machine_tags": "",
            "originalsecret": "2e60b8888e",
            "originalformat": "jpg",
            "latitude": 0,
            "longitude": 0,
            "accuracy": 0,
            "context": 0,
            "media": "photo",
            "media_status": "ready",
            "url_sq": "https:\/\/farm4.staticflickr.com\/3797\/14090163898_bf06719947_s.jpg",
            "height_sq": 75,
            "width_sq": 75,
            "url_t": "https:\/\/farm4.staticflickr.com\/3797\/14090163898_bf06719947_t.jpg",
            "height_t": 67,
            "width_t": 100,
            "url_s": "https:\/\/farm4.staticflickr.com\/3797\/14090163898_bf06719947_m.jpg",
            "height_s": "160",
            "width_s": "240",
            "url_q": "https:\/\/farm4.staticflickr.com\/3797\/14090163898_bf06719947_q.jpg",
            "height_q": "150",
            "width_q": "150",
            "url_m": "https:\/\/farm4.staticflickr.com\/3797\/14090163898_bf06719947.jpg",
            "height_m": "333",
            "width_m": "500",
            "url_n": "https:\/\/farm4.staticflickr.com\/3797\/14090163898_bf06719947_n.jpg",
            "height_n": "213",
            "width_n": "320",
            "url_z": "https:\/\/farm4.staticflickr.com\/3797\/14090163898_bf06719947_z.jpg",
            "height_z": "427",
            "width_z": "640",
            "url_c": "https:\/\/farm4.staticflickr.com\/3797\/14090163898_bf06719947_c.jpg",
            "height_c": "534",
            "width_c": "800",
            "url_l": "https:\/\/farm4.staticflickr.com\/3797\/14090163898_bf06719947_b.jpg",
            "height_l": "683",
            "width_l": "1024",
            "url_o": "https:\/\/farm4.staticflickr.com\/3797\/14090163898_2e60b8888e_o.jpg",
            "height_o": "3702",
            "width_o": "5553",
            "pathalias": "jinxlib"
        },
        {
            "id": "14273488301",
            "owner": "124857539@N03",
            "secret": "31b77c01b8",
            "server": "5276",
            "farm": 6,
            "title": "Last Time That I Saw You",
            "ispublic": 1,
            "isfriend": 0,
            "isfamily": 0,
            "license": 0,
            "description": {
                "_content": ""
            },
            "dateupload": "1401132432",
            "lastupdate": "1403463319",
            "datetaken": "2013-03-23 15:57:57",
            "datetakengranularity": 0,
            "ownername": "jinxlib",
            "iconserver": "5538",
            "iconfarm": 6,
            "views": 12,
            "tags": "sculpture iceland reykjavik publicart",
            "machine_tags": "",
            "originalsecret": "087a9fa515",
            "originalformat": "jpg",
            "latitude": 0,
            "longitude": 0,
            "accuracy": 0,
            "context": 0,
            "media": "photo",
            "media_status": "ready",
            "url_sq": "https:\/\/farm6.staticflickr.com\/5276\/14273488301_31b77c01b8_s.jpg",
            "height_sq": 75,
            "width_sq": 75,
            "url_t": "https:\/\/farm6.staticflickr.com\/5276\/14273488301_31b77c01b8_t.jpg",
            "height_t": 67,
            "width_t": 100,
            "url_s": "https:\/\/farm6.staticflickr.com\/5276\/14273488301_31b77c01b8_m.jpg",
            "height_s": "160",
            "width_s": "240",
            "url_q": "https:\/\/farm6.staticflickr.com\/5276\/14273488301_31b77c01b8_q.jpg",
            "height_q": "150",
            "width_q": "150",
            "url_m": "https:\/\/farm6.staticflickr.com\/5276\/14273488301_31b77c01b8.jpg",
            "height_m": "333",
            "width_m": "500",
            "url_n": "https:\/\/farm6.staticflickr.com\/5276\/14273488301_31b77c01b8_n.jpg",
            "height_n": "213",
            "width_n": "320",
            "url_z": "https:\/\/farm6.staticflickr.com\/5276\/14273488301_31b77c01b8_z.jpg",
            "height_z": "427",
            "width_z": "640",
            "url_c": "https:\/\/farm6.staticflickr.com\/5276\/14273488301_31b77c01b8_c.jpg",
            "height_c": "534",
            "width_c": "800",
            "url_l": "https:\/\/farm6.staticflickr.com\/5276\/14273488301_31b77c01b8_b.jpg",
            "height_l": "683",
            "width_l": "1024",
            "url_o": "https:\/\/farm6.staticflickr.com\/5276\/14273488301_087a9fa515_o.jpg",
            "height_o": "3744",
            "width_o": "5616",
            "pathalias": "jinxlib"
        },
        {
            "id": "14253707236",
            "owner": "124857539@N03",
            "secret": "8e0e12d61f",
            "server": "3833",
            "farm": 4,
            "title": "Parts Of A Whole",
            "ispublic": 1,
            "isfriend": 0,
            "isfamily": 0,
            "license": 0,
            "description": {
                "_content": ""
            },
            "dateupload": "1401132432",
            "lastupdate": "1401132438",
            "datetaken": "2013-03-24 11:27:06",
            "datetakengranularity": 0,
            "ownername": "jinxlib",
            "iconserver": "5538",
            "iconfarm": 6,
            "views": 12,
            "tags": "macro tree nature iceland moss reykjavik bark",
            "machine_tags": "",
            "originalsecret": "26dcf22472",
            "originalformat": "jpg",
            "latitude": 0,
            "longitude": 0,
            "accuracy": 0,
            "context": 0,
            "media": "photo",
            "media_status": "ready",
            "url_sq": "https:\/\/farm4.staticflickr.com\/3833\/14253707236_8e0e12d61f_s.jpg",
            "height_sq": 75,
            "width_sq": 75,
            "url_t": "https:\/\/farm4.staticflickr.com\/3833\/14253707236_8e0e12d61f_t.jpg",
            "height_t": 100,
            "width_t": 67,
            "url_s": "https:\/\/farm4.staticflickr.com\/3833\/14253707236_8e0e12d61f_m.jpg",
            "height_s": "240",
            "width_s": "160",
            "url_q": "https:\/\/farm4.staticflickr.com\/3833\/14253707236_8e0e12d61f_q.jpg",
            "height_q": "150",
            "width_q": "150",
            "url_m": "https:\/\/farm4.staticflickr.com\/3833\/14253707236_8e0e12d61f.jpg",
            "height_m": "500",
            "width_m": "333",
            "url_n": "https:\/\/farm4.staticflickr.com\/3833\/14253707236_8e0e12d61f_n.jpg",
            "height_n": "320",
            "width_n": "213",
            "url_z": "https:\/\/farm4.staticflickr.com\/3833\/14253707236_8e0e12d61f_z.jpg",
            "height_z": "640",
            "width_z": "427",
            "url_c": "https:\/\/farm4.staticflickr.com\/3833\/14253707236_8e0e12d61f_c.jpg",
            "height_c": "800",
            "width_c": "534",
            "url_l": "https:\/\/farm4.staticflickr.com\/3833\/14253707236_8e0e12d61f_b.jpg",
            "height_l": "1024",
            "width_l": "683",
            "url_o": "https:\/\/farm4.staticflickr.com\/3833\/14253707236_26dcf22472_o.jpg",
            "height_o": "5616",
            "width_o": "3744",
            "pathalias": "jinxlib"
        },
        {
            "id": "14253709936",
            "owner": "124857539@N03",
            "secret": "85a9b9dfc2",
            "server": "3704",
            "farm": 4,
            "title": "Seven One Nine Seven",
            "ispublic": 1,
            "isfriend": 0,
            "isfamily": 0,
            "license": 0,
            "description": {
                "_content": ""
            },
            "dateupload": "1401132431",
            "lastupdate": "1401132438",
            "datetaken": "2013-03-23 15:42:05",
            "datetakengranularity": 0,
            "ownername": "jinxlib",
            "iconserver": "5538",
            "iconfarm": 6,
            "views": 25,
            "tags": "water boat iceland dock ducks reykjavik",
            "machine_tags": "",
            "originalsecret": "7c01d4176b",
            "originalformat": "jpg",
            "latitude": 0,
            "longitude": 0,
            "accuracy": 0,
            "context": 0,
            "media": "photo",
            "media_status": "ready",
            "url_sq": "https:\/\/farm4.staticflickr.com\/3704\/14253709936_85a9b9dfc2_s.jpg",
            "height_sq": 75,
            "width_sq": 75,
            "url_t": "https:\/\/farm4.staticflickr.com\/3704\/14253709936_85a9b9dfc2_t.jpg",
            "height_t": 65,
            "width_t": 100,
            "url_s": "https:\/\/farm4.staticflickr.com\/3704\/14253709936_85a9b9dfc2_m.jpg",
            "height_s": "156",
            "width_s": "240",
            "url_q": "https:\/\/farm4.staticflickr.com\/3704\/14253709936_85a9b9dfc2_q.jpg",
            "height_q": "150",
            "width_q": "150",
            "url_m": "https:\/\/farm4.staticflickr.com\/3704\/14253709936_85a9b9dfc2.jpg",
            "height_m": "326",
            "width_m": "500",
            "url_n": "https:\/\/farm4.staticflickr.com\/3704\/14253709936_85a9b9dfc2_n.jpg",
            "height_n": "208",
            "width_n": "320",
            "url_z": "https:\/\/farm4.staticflickr.com\/3704\/14253709936_85a9b9dfc2_z.jpg",
            "height_z": "417",
            "width_z": "640",
            "url_c": "https:\/\/farm4.staticflickr.com\/3704\/14253709936_85a9b9dfc2_c.jpg",
            "height_c": "521",
            "width_c": "800",
            "url_l": "https:\/\/farm4.staticflickr.com\/3704\/14253709936_85a9b9dfc2_b.jpg",
            "height_l": "667",
            "width_l": "1024",
            "url_o": "https:\/\/farm4.staticflickr.com\/3704\/14253709936_7c01d4176b_o.jpg",
            "height_o": "3657",
            "width_o": "5615",
            "pathalias": "jinxlib"
        },
        {
            "id": "14253711336",
            "owner": "124857539@N03",
            "secret": "772cec7714",
            "server": "3714",
            "farm": 4,
            "title": "Spent All Day",
            "ispublic": 1,
            "isfriend": 0,
            "isfamily": 0,
            "license": 0,
            "description": {
                "_content": ""
            },
            "dateupload": "1401132430",
            "lastupdate": "1401132438",
            "datetaken": "2013-03-25 15:57:49",
            "datetakengranularity": 0,
            "ownername": "jinxlib",
            "iconserver": "5538",
            "iconfarm": 6,
            "views": 22,
            "tags": "lake snow mountains reflection river landscape iceland scenery",
            "machine_tags": "",
            "originalsecret": "3b4e72a0e1",
            "originalformat": "jpg",
            "latitude": 0,
            "longitude": 0,
            "accuracy": 0,
            "context": 0,
            "media": "photo",
            "media_status": "ready",
            "url_sq": "https:\/\/farm4.staticflickr.com\/3714\/14253711336_772cec7714_s.jpg",
            "height_sq": 75,
            "width_sq": 75,
            "url_t": "https:\/\/farm4.staticflickr.com\/3714\/14253711336_772cec7714_t.jpg",
            "height_t": 67,
            "width_t": 100,
            "url_s": "https:\/\/farm4.staticflickr.com\/3714\/14253711336_772cec7714_m.jpg",
            "height_s": "160",
            "width_s": "240",
            "url_q": "https:\/\/farm4.staticflickr.com\/3714\/14253711336_772cec7714_q.jpg",
            "height_q": "150",
            "width_q": "150",
            "url_m": "https:\/\/farm4.staticflickr.com\/3714\/14253711336_772cec7714.jpg",
            "height_m": "333",
            "width_m": "500",
            "url_n": "https:\/\/farm4.staticflickr.com\/3714\/14253711336_772cec7714_n.jpg",
            "height_n": "213",
            "width_n": "320",
            "url_z": "https:\/\/farm4.staticflickr.com\/3714\/14253711336_772cec7714_z.jpg",
            "height_z": "427",
            "width_z": "640",
            "url_c": "https:\/\/farm4.staticflickr.com\/3714\/14253711336_772cec7714_c.jpg",
            "height_c": "534",
            "width_c": "800",
            "url_l": "https:\/\/farm4.staticflickr.com\/3714\/14253711336_772cec7714_b.jpg",
            "height_l": "683",
            "width_l": "1024",
            "url_o": "https:\/\/farm4.staticflickr.com\/3714\/14253711336_3b4e72a0e1_o.jpg",
            "height_o": "3666",
            "width_o": "5499",
            "pathalias": "jinxlib"
        },
        {
            "id": "14090270537",
            "owner": "124857539@N03",
            "secret": "faf8715354",
            "server": "2901",
            "farm": 3,
            "title": "Suffering Tonight",
            "ispublic": 1,
            "isfriend": 0,
            "isfamily": 0,
            "license": 0,
            "description": {
                "_content": ""
            },
            "dateupload": "1401132430",
            "lastupdate": "1401132438",
            "datetaken": "2013-03-21 19:56:20",
            "datetakengranularity": 0,
            "ownername": "jinxlib",
            "iconserver": "5538",
            "iconfarm": 6,
            "views": 16,
            "tags": "sculpture statue person iceland dragon reykjavik publicart",
            "machine_tags": "",
            "originalsecret": "fa140a7bbe",
            "originalformat": "jpg",
            "latitude": 0,
            "longitude": 0,
            "accuracy": 0,
            "context": 0,
            "media": "photo",
            "media_status": "ready",
            "url_sq": "https:\/\/farm3.staticflickr.com\/2901\/14090270537_faf8715354_s.jpg",
            "height_sq": 75,
            "width_sq": 75,
            "url_t": "https:\/\/farm3.staticflickr.com\/2901\/14090270537_faf8715354_t.jpg",
            "height_t": 67,
            "width_t": 100,
            "url_s": "https:\/\/farm3.staticflickr.com\/2901\/14090270537_faf8715354_m.jpg",
            "height_s": "160",
            "width_s": "240",
            "url_q": "https:\/\/farm3.staticflickr.com\/2901\/14090270537_faf8715354_q.jpg",
            "height_q": "150",
            "width_q": "150",
            "url_m": "https:\/\/farm3.staticflickr.com\/2901\/14090270537_faf8715354.jpg",
            "height_m": "333",
            "width_m": "500",
            "url_n": "https:\/\/farm3.staticflickr.com\/2901\/14090270537_faf8715354_n.jpg",
            "height_n": "213",
            "width_n": "320",
            "url_z": "https:\/\/farm3.staticflickr.com\/2901\/14090270537_faf8715354_z.jpg",
            "height_z": "427",
            "width_z": "640",
            "url_c": "https:\/\/farm3.staticflickr.com\/2901\/14090270537_faf8715354_c.jpg",
            "height_c": "534",
            "width_c": "800",
            "url_l": "https:\/\/farm3.staticflickr.com\/2901\/14090270537_faf8715354_b.jpg",
            "height_l": "683",
            "width_l": "1024",
            "url_o": "https:\/\/farm3.staticflickr.com\/2901\/14090270537_fa140a7bbe_o.jpg",
            "height_o": "3744",
            "width_o": "5616",
            "pathalias": "jinxlib"
        },
        {
            "id": "14276832885",
            "owner": "124857539@N03",
            "secret": "b2a8f1fd58",
            "server": "3805",
            "farm": 4,
            "title": "SZ 43",
            "ispublic": 1,
            "isfriend": 0,
            "isfamily": 0,
            "license": 0,
            "description": {
                "_content": ""
            },
            "dateupload": "1401132429",
            "lastupdate": "1401132438",
            "datetaken": "2013-03-22 18:24:08",
            "datetakengranularity": 0,
            "ownername": "jinxlib",
            "iconserver": "5538",
            "iconfarm": 6,
            "views": 16,
            "tags": "streetart bike bicycle person graffiti iceland photographer reykjavik urbanart",
            "machine_tags": "",
            "originalsecret": "8e33f2c0c6",
            "originalformat": "jpg",
            "latitude": 0,
            "longitude": 0,
            "accuracy": 0,
            "context": 0,
            "media": "photo",
            "media_status": "ready",
            "url_sq": "https:\/\/farm4.staticflickr.com\/3805\/14276832885_b2a8f1fd58_s.jpg",
            "height_sq": 75,
            "width_sq": 75,
            "url_t": "https:\/\/farm4.staticflickr.com\/3805\/14276832885_b2a8f1fd58_t.jpg",
            "height_t": 67,
            "width_t": 100,
            "url_s": "https:\/\/farm4.staticflickr.com\/3805\/14276832885_b2a8f1fd58_m.jpg",
            "height_s": "160",
            "width_s": "240",
            "url_q": "https:\/\/farm4.staticflickr.com\/3805\/14276832885_b2a8f1fd58_q.jpg",
            "height_q": "150",
            "width_q": "150",
            "url_m": "https:\/\/farm4.staticflickr.com\/3805\/14276832885_b2a8f1fd58.jpg",
            "height_m": "333",
            "width_m": "500",
            "url_n": "https:\/\/farm4.staticflickr.com\/3805\/14276832885_b2a8f1fd58_n.jpg",
            "height_n": "213",
            "width_n": "320",
            "url_z": "https:\/\/farm4.staticflickr.com\/3805\/14276832885_b2a8f1fd58_z.jpg",
            "height_z": "427",
            "width_z": "640",
            "url_c": "https:\/\/farm4.staticflickr.com\/3805\/14276832885_b2a8f1fd58_c.jpg",
            "height_c": "534",
            "width_c": "800",
            "url_l": "https:\/\/farm4.staticflickr.com\/3805\/14276832885_b2a8f1fd58_b.jpg",
            "height_l": "683",
            "width_l": "1024",
            "url_o": "https:\/\/farm4.staticflickr.com\/3805\/14276832885_8e33f2c0c6_o.jpg",
            "height_o": "3744",
            "width_o": "5616",
            "pathalias": "jinxlib"
        },
        {
            "id": "14253719326",
            "owner": "124857539@N03",
            "secret": "bf8c631d54",
            "server": "5537",
            "farm": 6,
            "title": "The Prophets",
            "ispublic": 1,
            "isfriend": 0,
            "isfamily": 0,
            "license": 0,
            "description": {
                "_content": ""
            },
            "dateupload": "1401132429",
            "lastupdate": "1402161413",
            "datetaken": "2013-03-24 12:08:33",
            "datetakengranularity": 0,
            "ownername": "jinxlib",
            "iconserver": "5538",
            "iconfarm": 6,
            "views": 16,
            "tags": "window iceland stainedglass reykjavik nationalmuseumoficeland",
            "machine_tags": "",
            "originalsecret": "c33563b104",
            "originalformat": "jpg",
            "latitude": 0,
            "longitude": 0,
            "accuracy": 0,
            "context": 0,
            "media": "photo",
            "media_status": "ready",
            "url_sq": "https:\/\/farm6.staticflickr.com\/5537\/14253719326_bf8c631d54_s.jpg",
            "height_sq": 75,
            "width_sq": 75,
            "url_t": "https:\/\/farm6.staticflickr.com\/5537\/14253719326_bf8c631d54_t.jpg",
            "height_t": 100,
            "width_t": 67,
            "url_s": "https:\/\/farm6.staticflickr.com\/5537\/14253719326_bf8c631d54_m.jpg",
            "height_s": "240",
            "width_s": "160",
            "url_q": "https:\/\/farm6.staticflickr.com\/5537\/14253719326_bf8c631d54_q.jpg",
            "height_q": "150",
            "width_q": "150",
            "url_m": "https:\/\/farm6.staticflickr.com\/5537\/14253719326_bf8c631d54.jpg",
            "height_m": "500",
            "width_m": "333",
            "url_n": "https:\/\/farm6.staticflickr.com\/5537\/14253719326_bf8c631d54_n.jpg",
            "height_n": "320",
            "width_n": "213",
            "url_z": "https:\/\/farm6.staticflickr.com\/5537\/14253719326_bf8c631d54_z.jpg",
            "height_z": "640",
            "width_z": "427",
            "url_c": "https:\/\/farm6.staticflickr.com\/5537\/14253719326_bf8c631d54_c.jpg",
            "height_c": "800",
            "width_c": "534",
            "url_l": "https:\/\/farm6.staticflickr.com\/5537\/14253719326_bf8c631d54_b.jpg",
            "height_l": "1024",
            "width_l": "683",
            "url_o": "https:\/\/farm6.staticflickr.com\/5537\/14253719326_c33563b104_o.jpg",
            "height_o": "5616",
            "width_o": "3744",
            "pathalias": "jinxlib"
        },
        {
            "id": "14090277117",
            "owner": "124857539@N03",
            "secret": "ce3534f92a",
            "server": "3679",
            "farm": 4,
            "title": "There's Sill A Hole In Your Heart",
            "ispublic": 1,
            "isfriend": 0,
            "isfamily": 0,
            "license": 0,
            "description": {
                "_content": ""
            },
            "dateupload": "1401132429",
            "lastupdate": "1401132439",
            "datetaken": "2013-03-24 11:17:57",
            "datetakengranularity": 0,
            "ownername": "jinxlib",
            "iconserver": "5538",
            "iconfarm": 6,
            "views": 27,
            "tags": "reflection bird nature water animal iceland reykjavik",
            "machine_tags": "",
            "originalsecret": "b613c41399",
            "originalformat": "jpg",
            "latitude": 0,
            "longitude": 0,
            "accuracy": 0,
            "context": 0,
            "media": "photo",
            "media_status": "ready",
            "url_sq": "https:\/\/farm4.staticflickr.com\/3679\/14090277117_ce3534f92a_s.jpg",
            "height_sq": 75,
            "width_sq": 75,
            "url_t": "https:\/\/farm4.staticflickr.com\/3679\/14090277117_ce3534f92a_t.jpg",
            "height_t": 100,
            "width_t": 100,
            "url_s": "https:\/\/farm4.staticflickr.com\/3679\/14090277117_ce3534f92a_m.jpg",
            "height_s": "240",
            "width_s": "240",
            "url_q": "https:\/\/farm4.staticflickr.com\/3679\/14090277117_ce3534f92a_q.jpg",
            "height_q": "150",
            "width_q": "150",
            "url_m": "https:\/\/farm4.staticflickr.com\/3679\/14090277117_ce3534f92a.jpg",
            "height_m": "500",
            "width_m": "500",
            "url_n": "https:\/\/farm4.staticflickr.com\/3679\/14090277117_ce3534f92a_n.jpg",
            "height_n": "320",
            "width_n": "320",
            "url_z": "https:\/\/farm4.staticflickr.com\/3679\/14090277117_ce3534f92a_z.jpg",
            "height_z": "640",
            "width_z": "640",
            "url_c": "https:\/\/farm4.staticflickr.com\/3679\/14090277117_ce3534f92a_c.jpg",
            "height_c": "800",
            "width_c": "800",
            "url_l": "https:\/\/farm4.staticflickr.com\/3679\/14090277117_ce3534f92a_b.jpg",
            "height_l": "1024",
            "width_l": "1024",
            "url_o": "https:\/\/farm4.staticflickr.com\/3679\/14090277117_b613c41399_o.jpg",
            "height_o": "3040",
            "width_o": "3040",
            "pathalias": "jinxlib"
        },
        {
            "id": "14253652576",
            "owner": "124857539@N03",
            "secret": "74389befa2",
            "server": "2923",
            "farm": 3,
            "title": "Cistern Cafe",
            "ispublic": 1,
            "isfriend": 0,
            "isfamily": 0,
            "license": 0,
            "description": {
                "_content": ""
            },
            "dateupload": "1401132022",
            "lastupdate": "1401844511",
            "datetaken": "2014-03-13 12:11:10",
            "datetakengranularity": 0,
            "ownername": "jinxlib",
            "iconserver": "5538",
            "iconfarm": 6,
            "views": 16,
            "tags": "turkey cafe neon istanbul pepsi soda neonsigns basilicacistern sign:type=neon test:title=mrcamera tagwithadot",
            "machine_tags": "sign:type=neon test:title=mrcamera",
            "originalsecret": "5bd25ea39e",
            "originalformat": "jpg",
            "latitude": 0,
            "longitude": 0,
            "accuracy": 0,
            "context": 0,
            "media": "photo",
            "media_status": "ready",
            "url_sq": "https:\/\/farm3.staticflickr.com\/2923\/14253652576_74389befa2_s.jpg",
            "height_sq": 75,
            "width_sq": 75,
            "url_t": "https:\/\/farm3.staticflickr.com\/2923\/14253652576_74389befa2_t.jpg",
            "height_t": 67,
            "width_t": 100,
            "url_s": "https:\/\/farm3.staticflickr.com\/2923\/14253652576_74389befa2_m.jpg",
            "height_s": "160",
            "width_s": "240",
            "url_q": "https:\/\/farm3.staticflickr.com\/2923\/14253652576_74389befa2_q.jpg",
            "height_q": "150",
            "width_q": "150",
            "url_m": "https:\/\/farm3.staticflickr.com\/2923\/14253652576_74389befa2.jpg",
            "height_m": "333",
            "width_m": "500",
            "url_n": "https:\/\/farm3.staticflickr.com\/2923\/14253652576_74389befa2_n.jpg",
            "height_n": "213",
            "width_n": "320",
            "url_z": "https:\/\/farm3.staticflickr.com\/2923\/14253652576_74389befa2_z.jpg",
            "height_z": "427",
            "width_z": "640",
            "url_c": "https:\/\/farm3.staticflickr.com\/2923\/14253652576_74389befa2_c.jpg",
            "height_c": "534",
            "width_c": "800",
            "url_l": "https:\/\/farm3.staticflickr.com\/2923\/14253652576_74389befa2_b.jpg",
            "height_l": "683",
            "width_l": "1024",
            "url_o": "https:\/\/farm3.staticflickr.com\/2923\/14253652576_5bd25ea39e_o.jpg",
            "height_o": "3744",
            "width_o": "5616",
            "pathalias": "jinxlib"
        }
    ]
}, "stat": "ok" }