{
  "domain": {
    "page": 1,
    "perpage": 25,
    "pages": 57,
    "total": "1420",
    "referrer": [
      {
        "url": "http:\/\/flickr.com\/",
        "views": "230"
      },
      {
        "url": "http:\/\/flickr.com\/search\/?q=contra+costa+county",
        "views": "172",
        "searchterm": "contra costa county"
      },
      {
        "url": "http:\/\/flickr.com\/photos\/jeremybrooks\/",
        "views": "163"
      },
      {
        "url": "http:\/\/flickr.com\/search\/?q=working+and+office",
        "views": 67,
        "searchterm": "working and office"
      },
      {
        "url": "http:\/\/flickr.com\/search\/?q=the+tenderloin+san+francisco",
        "views": 50,
        "searchterm": "the tenderloin san francisco"
      },
      {
        "url": "http:\/\/flickr.com\/search\/?q=neon+signs",
        "views": 42,
        "searchterm": "neon signs"
      },
      {
        "url": "http:\/\/flickr.com\/search\/?q=window+washer",
        "views": 33,
        "searchterm": "window washer"
      },
      {
        "url": "http:\/\/flickr.com\/search\/?q=sonoma",
        "views": 31,
        "searchterm": "sonoma"
      },
      {
        "url": "http:\/\/flickr.com\/search\/?q=massage",
        "views": 30,
        "searchterm": "massage"
      },
      {
        "url": "http:\/\/flickr.com\/search\/?q=philz+coffee",
        "views": 28,
        "searchterm": "philz coffee"
      },
      {
        "url": "http:\/\/flickr.com\/search\/?q=black+people+america",
        "views": 24,
        "searchterm": "black people america"
      },
      {
        "url": "http:\/\/flickr.com\/search\/?q=iceland+snow",
        "views": 24,
        "searchterm": "iceland snow"
      },
      {
        "url": "http:\/\/flickr.com\/search\/?q=female+face",
        "views": 23,
        "searchterm": "female face"
      },
      {
        "url": "http:\/\/flickr.com\/search\/?q=iceland",
        "views": 22,
        "searchterm": "iceland"
      },
      {
        "url": "http:\/\/flickr.com\/search\/?q=bart+train+station",
        "views": 19,
        "searchterm": "bart train station"
      },
      {
        "url": "http:\/\/flickr.com\/search\/?q=columbus+avenue+san+francisco",
        "views": 18,
        "searchterm": "columbus avenue san francisco"
      },
      {
        "url": "http:\/\/flickr.com\/photos\/idaniel\/favorites\/page3\/",
        "views": 17
      },
      {
        "url": "http:\/\/flickr.com\/search\/?q=massaging",
        "views": 17,
        "searchterm": "massaging"
      },
      {
        "url": "http:\/\/flickr.com\/photos\/jeremybrooks\/with\/31349998834\/",
        "views": 16
      },
      {
        "url": "http:\/\/flickr.com\/search\/?q=fitness",
        "views": 14,
        "searchterm": "fitness"
      },
      {
        "url": "http:\/\/flickr.com\/search\/?q=san+francisco",
        "views": 13,
        "searchterm": "san francisco"
      },
      {
        "url": "http:\/\/flickr.com\/search\/?q=model",
        "views": 12,
        "searchterm": "model"
      },
      {
        "url": "http:\/\/flickr.com\/search\/?q=neon",
        "views": 12,
        "searchterm": "neon"
      },
      {
        "url": "http:\/\/flickr.com\/search\/?q=black+power",
        "views": 12,
        "searchterm": "black power"
      },
      {
        "url": "http:\/\/flickr.com\/search\/?q=blurred+nature",
        "views": 11,
        "searchterm": "blurred nature"
      }
    ],
    "name": "flickr.com"
  },
  "stat": "ok"
}