{ "photosets": {
    "cancreate": 1,
    "page": 1,
    "pages": 45,
    "perpage": 10,
    "total": "447",
    "photoset": [
        {
            "id": "72157644326967779",
            "primary": "2472223927",
            "secret": "7081aec34e",
            "server": "2026",
            "farm": 3,
            "photos": 87,
            "videos": 0,
            "title": {
                "_content": "Neon of Nebraska"
            },
            "description": {
                "_content": "Neon signs in Nebraska.\n\nThis set is managed by <a href=\"http:\/\/www.jeremybrooks.net\/suprsetr\" rel=\"nofollow\">SuprSetr<\/a>"
            },
            "needs_interstitial": 0,
            "visibility_can_see_set": 1,
            "count_views": 0,
            "count_comments": 0,
            "can_comment": 1,
            "date_create": "1400476343",
            "date_update": "1400476349",
            "primary_photo_extras": {
                "license": 2,
                "o_width": "3888",
                "o_height": "2588",
                "dateupload": "1210135559",
                "lastupdate": "1385342902",
                "datetaken": "2008-05-03 08:34:09",
                "datetakengranularity": 1,
                "ownername": "Jeremy Brooks",
                "iconserver": "5332",
                "iconfarm": 6,
                "views": "1084",
                "tags": "food restaurant nebraska neon day unitedstates meat steak lucky omaha",
                "machine_tags": "sign:type=neon",
                "originalsecret": "e64cd9f5d9",
                "originalformat": "jpg",
                "latitude": 41.248833,
                "longitude": -95.929666,
                "accuracy": 16,
                "context": 0,
                "place_id": "gNIcefxTWrgrNXMkFQ",
                "woeid": "28288811",
                "geo_is_family": 0,
                "geo_is_friend": 0,
                "geo_is_contact": 0,
                "geo_is_public": 1,
                "media": "photo",
                "media_status": "ready",
                "url_sq": "https:\/\/farm3.staticflickr.com\/2026\/2472223927_7081aec34e_s.jpg",
                "height_sq": 75,
                "width_sq": 75,
                "url_t": "https:\/\/farm3.staticflickr.com\/2026\/2472223927_7081aec34e_t.jpg",
                "height_t": 67,
                "width_t": 100,
                "url_s": "https:\/\/farm3.staticflickr.com\/2026\/2472223927_7081aec34e_m.jpg",
                "height_s": "160",
                "width_s": "240",
                "url_m": "https:\/\/farm3.staticflickr.com\/2026\/2472223927_7081aec34e.jpg",
                "height_m": "333",
                "width_m": "500",
                "url_o": "https:\/\/farm3.staticflickr.com\/2026\/2472223927_e64cd9f5d9_o.jpg",
                "height_o": "2588",
                "width_o": "3888",
                "pathalias": "jeremybrooks"
            }
        },
        {
            "id": "72157644327019368",
            "primary": "3970730802",
            "secret": "092b50ca6f",
            "server": "2510",
            "farm": 3,
            "photos": 2,
            "videos": 0,
            "title": {
                "_content": "Neon of Arizona"
            },
            "description": {
                "_content": "Neon signs in Arizona.\nThis set is managed by <a href=\"http:\/\/www.jeremybrooks.net\/suprsetr\" rel=\"nofollow\">SuprSetr<\/a>"
            },
            "needs_interstitial": 0,
            "visibility_can_see_set": 1,
            "count_views": 0,
            "count_comments": 0,
            "can_comment": 1,
            "date_create": "1400476283",
            "date_update": "1400476285",
            "primary_photo_extras": {
                "license": 2,
                "o_width": "4861",
                "o_height": "2442",
                "dateupload": "1254361274",
                "lastupdate": "1264806573",
                "datetaken": "2009-09-29 18:03:24",
                "datetakengranularity": 0,
                "ownername": "Jeremy Brooks",
                "iconserver": "5332",
                "iconfarm": 6,
                "views": 52,
                "tags": "arizona phoenix restaurant cafe airport neon roadside phx phoenixskyharborairport",
                "machine_tags": "",
                "originalsecret": "8bfe75f0fc",
                "originalformat": "jpg",
                "latitude": 0,
                "longitude": 0,
                "accuracy": 0,
                "context": 0,
                "media": "photo",
                "media_status": "ready",
                "url_sq": "https:\/\/farm3.staticflickr.com\/2510\/3970730802_092b50ca6f_s.jpg",
                "height_sq": 75,
                "width_sq": 75,
                "url_t": "https:\/\/farm3.staticflickr.com\/2510\/3970730802_092b50ca6f_t.jpg",
                "height_t": 50,
                "width_t": 100,
                "url_s": "https:\/\/farm3.staticflickr.com\/2510\/3970730802_092b50ca6f_m.jpg",
                "height_s": "120",
                "width_s": "240",
                "url_m": "https:\/\/farm3.staticflickr.com\/2510\/3970730802_092b50ca6f.jpg",
                "height_m": "251",
                "width_m": "500",
                "url_o": "https:\/\/farm3.staticflickr.com\/2510\/3970730802_8bfe75f0fc_o.jpg",
                "height_o": "2442",
                "width_o": "4861",
                "pathalias": "jeremybrooks"
            }
        },
        {
            "id": "72157644728554152",
            "primary": "7903262432",
            "secret": "aaa1a26692",
            "server": "8179",
            "farm": 9,
            "photos": 2,
            "videos": 0,
            "title": {
                "_content": "Neon of Oregon"
            },
            "description": {
                "_content": "Neon signs in Oregon.\n\nThis set is managed by <a href=\"http:\/\/www.jeremybrooks.net\/suprsetr\" rel=\"nofollow\">SuprSetr<\/a>"
            },
            "needs_interstitial": 0,
            "visibility_can_see_set": 1,
            "count_views": 0,
            "count_comments": 0,
            "can_comment": 1,
            "date_create": "1400476237",
            "date_update": "1400476238",
            "primary_photo_extras": {
                "license": 2,
                "o_width": "5616",
                "o_height": "3744",
                "dateupload": "1346458363",
                "lastupdate": "1360694933",
                "datetaken": "2012-06-12 10:25:47",
                "datetakengranularity": 0,
                "ownername": "Jeremy Brooks",
                "iconserver": "5332",
                "iconfarm": 6,
                "views": "482",
                "tags": "usa oregon portland neon multnomahcounty",
                "machine_tags": "",
                "originalsecret": "12a4eb2e71",
                "originalformat": "jpg",
                "latitude": 0,
                "longitude": 0,
                "accuracy": 0,
                "context": 0,
                "media": "photo",
                "media_status": "ready",
                "url_sq": "https:\/\/farm9.staticflickr.com\/8179\/7903262432_aaa1a26692_s.jpg",
                "height_sq": 75,
                "width_sq": 75,
                "url_t": "https:\/\/farm9.staticflickr.com\/8179\/7903262432_aaa1a26692_t.jpg",
                "height_t": 67,
                "width_t": 100,
                "url_s": "https:\/\/farm9.staticflickr.com\/8179\/7903262432_aaa1a26692_m.jpg",
                "height_s": "160",
                "width_s": "240",
                "url_m": "https:\/\/farm9.staticflickr.com\/8179\/7903262432_aaa1a26692.jpg",
                "height_m": "333",
                "width_m": "500",
                "url_o": "https:\/\/farm9.staticflickr.com\/8179\/7903262432_12a4eb2e71_o.jpg",
                "height_o": "3744",
                "width_o": "5616",
                "pathalias": "jeremybrooks"
            }
        },
        {
            "id": "72157644741104865",
            "primary": "3931840935",
            "secret": "f83117f033",
            "server": "2589",
            "farm": 3,
            "photos": 56,
            "videos": 0,
            "title": {
                "_content": "Neon of Washington (State)"
            },
            "description": {
                "_content": "Neon signs in Washington state.\n\nThis set is managed by <a href=\"http:\/\/www.jeremybrooks.net\/suprsetr\" rel=\"nofollow\">SuprSetr<\/a>"
            },
            "needs_interstitial": 0,
            "visibility_can_see_set": 1,
            "count_views": 0,
            "count_comments": 0,
            "can_comment": 1,
            "date_create": "1400476196",
            "date_update": "1400476200",
            "primary_photo_extras": {
                "license": 2,
                "o_width": "3540",
                "o_height": "5306",
                "dateupload": "1253307188",
                "lastupdate": "1368684437",
                "datetaken": "2009-09-12 11:25:31",
                "datetakengranularity": 0,
                "ownername": "Jeremy Brooks",
                "iconserver": "5332",
                "iconfarm": 6,
                "views": "1242",
                "tags": "city bird broken delete10 vintage delete9 delete5 delete2 restaurant golden washington cafe neon unitedstates delete6 delete7 pigeon chinese save3 delete8 delete3 delete4 save save2 save4 wa arrow tacoma save5 delete1 fav10 deletedbyhotboxuncensored",
                "machine_tags": "",
                "originalsecret": "1fa585af40",
                "originalformat": "jpg",
                "latitude": 47.222166,
                "longitude": -122.443333,
                "accuracy": 16,
                "context": 0,
                "place_id": "US6xyFZUV7LV43nHpg",
                "woeid": "55862065",
                "geo_is_family": 0,
                "geo_is_friend": 0,
                "geo_is_contact": 0,
                "geo_is_public": 1,
                "media": "photo",
                "media_status": "ready",
                "url_sq": "https:\/\/farm3.staticflickr.com\/2589\/3931840935_f83117f033_s.jpg",
                "height_sq": 75,
                "width_sq": 75,
                "url_t": "https:\/\/farm3.staticflickr.com\/2589\/3931840935_f83117f033_t.jpg",
                "height_t": 100,
                "width_t": 67,
                "url_s": "https:\/\/farm3.staticflickr.com\/2589\/3931840935_f83117f033_m.jpg",
                "height_s": "240",
                "width_s": "160",
                "url_m": "https:\/\/farm3.staticflickr.com\/2589\/3931840935_f83117f033.jpg",
                "height_m": "500",
                "width_m": "333",
                "url_o": "https:\/\/farm3.staticflickr.com\/2589\/3931840935_1fa585af40_o.jpg",
                "height_o": "5306",
                "width_o": "3540",
                "pathalias": "jeremybrooks"
            }
        },
        {
            "id": "72157644326983688",
            "primary": "10970814465",
            "secret": "48e0aa59ba",
            "server": "2847",
            "farm": 3,
            "photos": 77,
            "videos": 0,
            "title": {
                "_content": "Neon of Nevada"
            },
            "description": {
                "_content": "Neon signs in Nevada.\n\nThis set is managed by <a href=\"http:\/\/www.jeremybrooks.net\/suprsetr\" rel=\"nofollow\">SuprSetr<\/a>"
            },
            "needs_interstitial": 0,
            "visibility_can_see_set": 1,
            "count_views": 0,
            "count_comments": 0,
            "can_comment": 1,
            "date_create": "1400476064",
            "date_update": "1400476068",
            "primary_photo_extras": {
                "license": 2,
                "o_width": "5616",
                "o_height": "3744",
                "dateupload": "1384998931",
                "lastupdate": "1397192977",
                "datetaken": "2013-01-12 11:22:06",
                "datetakengranularity": 0,
                "ownername": "Jeremy Brooks",
                "iconserver": "5332",
                "iconfarm": 6,
                "views": "573",
                "tags": "usa face hat vintage person neon nevada motel reno fav10 washoecounty merrywink vision:outdoor=0973 vision:sky=0662",
                "machine_tags": "",
                "originalsecret": "0b7598841b",
                "originalformat": "jpg",
                "latitude": 0,
                "longitude": 0,
                "accuracy": 0,
                "context": 0,
                "media": "photo",
                "media_status": "ready",
                "url_sq": "https:\/\/farm3.staticflickr.com\/2847\/10970814465_48e0aa59ba_s.jpg",
                "height_sq": 75,
                "width_sq": 75,
                "url_t": "https:\/\/farm3.staticflickr.com\/2847\/10970814465_48e0aa59ba_t.jpg",
                "height_t": 67,
                "width_t": 100,
                "url_s": "https:\/\/farm3.staticflickr.com\/2847\/10970814465_48e0aa59ba_m.jpg",
                "height_s": "160",
                "width_s": "240",
                "url_m": "https:\/\/farm3.staticflickr.com\/2847\/10970814465_48e0aa59ba.jpg",
                "height_m": "333",
                "width_m": "500",
                "url_o": "https:\/\/farm3.staticflickr.com\/2847\/10970814465_0b7598841b_o.jpg",
                "height_o": "3744",
                "width_o": "5616",
                "pathalias": "jeremybrooks"
            }
        },
        {
            "id": "72157644782407903",
            "primary": "7140759787",
            "secret": "59cf113903",
            "server": "7135",
            "farm": 8,
            "photos": 31,
            "videos": 0,
            "title": {
                "_content": "Las Vegas Neon"
            },
            "description": {
                "_content": "Neon signs in Las Vegas, Nevada.\n\nThis set is managed by <a href=\"http:\/\/www.jeremybrooks.net\/suprsetr\" rel=\"nofollow\">SuprSetr<\/a>"
            },
            "needs_interstitial": 0,
            "visibility_can_see_set": 1,
            "count_views": 0,
            "count_comments": 0,
            "can_comment": 1,
            "date_create": "1400476039",
            "date_update": "1400476042",
            "primary_photo_extras": {
                "license": 2,
                "o_width": "5616",
                "o_height": "3744",
                "dateupload": "1336099706",
                "lastupdate": "1368682439",
                "datetaken": "2011-02-28 14:24:01",
                "datetakengranularity": 0,
                "ownername": "Jeremy Brooks",
                "iconserver": "5332",
                "iconfarm": 6,
                "views": "157",
                "tags": "usa architecture hotel neon lasvegas interior nevada cosmopolitanhotel clarkcounty fav10",
                "machine_tags": "",
                "originalsecret": "53e788d370",
                "originalformat": "jpg",
                "latitude": 0,
                "longitude": 0,
                "accuracy": 0,
                "context": 0,
                "media": "photo",
                "media_status": "ready",
                "url_sq": "https:\/\/farm8.staticflickr.com\/7135\/7140759787_59cf113903_s.jpg",
                "height_sq": 75,
                "width_sq": 75,
                "url_t": "https:\/\/farm8.staticflickr.com\/7135\/7140759787_59cf113903_t.jpg",
                "height_t": 67,
                "width_t": 100,
                "url_s": "https:\/\/farm8.staticflickr.com\/7135\/7140759787_59cf113903_m.jpg",
                "height_s": "160",
                "width_s": "240",
                "url_m": "https:\/\/farm8.staticflickr.com\/7135\/7140759787_59cf113903.jpg",
                "height_m": "333",
                "width_m": "500",
                "url_o": "https:\/\/farm8.staticflickr.com\/7135\/7140759787_53e788d370_o.jpg",
                "height_o": "3744",
                "width_o": "5616",
                "pathalias": "jeremybrooks"
            }
        },
        {
            "id": "72157644326805390",
            "primary": "7188768485",
            "secret": "06db4f6e2d",
            "server": "8023",
            "farm": 9,
            "photos": 57,
            "videos": 0,
            "title": {
                "_content": "Burger Neon"
            },
            "description": {
                "_content": "Neon burgers.\n\nThis set is managed by <a href=\"http:\/\/www.jeremybrooks.net\/suprsetr\" rel=\"nofollow\">SuprSetr<\/a>"
            },
            "needs_interstitial": 0,
            "visibility_can_see_set": 1,
            "count_views": 0,
            "count_comments": 0,
            "can_comment": 1,
            "date_create": "1400475580",
            "date_update": "1400475584",
            "primary_photo_extras": {
                "license": 2,
                "o_width": "3094",
                "o_height": "3744",
                "dateupload": "1339740237",
                "lastupdate": "1368682396",
                "datetaken": "2012-06-10 14:29:50",
                "datetakengranularity": 0,
                "ownername": "Jeremy Brooks",
                "iconserver": "5332",
                "iconfarm": 6,
                "views": "288",
                "tags": "food usa restaurant utah neon burger fastfood hamburgers burgers hamburger ogden shakes webercounty fav10",
                "machine_tags": "",
                "originalsecret": "973f5800e4",
                "originalformat": "jpg",
                "latitude": 0,
                "longitude": 0,
                "accuracy": 0,
                "context": 0,
                "media": "photo",
                "media_status": "ready",
                "url_sq": "https:\/\/farm9.staticflickr.com\/8023\/7188768485_06db4f6e2d_s.jpg",
                "height_sq": 75,
                "width_sq": 75,
                "url_t": "https:\/\/farm9.staticflickr.com\/8023\/7188768485_06db4f6e2d_t.jpg",
                "height_t": 100,
                "width_t": 83,
                "url_s": "https:\/\/farm9.staticflickr.com\/8023\/7188768485_06db4f6e2d_m.jpg",
                "height_s": "240",
                "width_s": "198",
                "url_m": "https:\/\/farm9.staticflickr.com\/8023\/7188768485_06db4f6e2d.jpg",
                "height_m": "500",
                "width_m": "413",
                "url_o": "https:\/\/farm9.staticflickr.com\/8023\/7188768485_973f5800e4_o.jpg",
                "height_o": "3744",
                "width_o": "3094",
                "pathalias": "jeremybrooks"
            }
        },
        {
            "id": "72157644326820929",
            "primary": "3350817519",
            "secret": "ce2edafe18",
            "server": "3040",
            "farm": 4,
            "photos": 54,
            "videos": 0,
            "title": {
                "_content": "Italian Restaurant Neon"
            },
            "description": {
                "_content": "Neon signs for Italian restaurants.\n\nThis set is managed by <a href=\"http:\/\/www.jeremybrooks.net\/suprsetr\" rel=\"nofollow\">SuprSetr<\/a>"
            },
            "needs_interstitial": 0,
            "visibility_can_see_set": 1,
            "count_views": 0,
            "count_comments": 0,
            "can_comment": 1,
            "date_create": "1400475438",
            "date_update": "1400475473",
            "primary_photo_extras": {
                "license": 2,
                "o_width": "3888",
                "o_height": "2588",
                "dateupload": "1236953475",
                "lastupdate": "1264806573",
                "datetaken": "2009-03-12 21:48:49",
                "datetakengranularity": 0,
                "ownername": "Jeremy Brooks",
                "iconserver": "5332",
                "iconfarm": 6,
                "views": 94,
                "tags": "sanfrancisco california red geotagged restaurant italian neon southsanfrancisco sodinis bertoluccis",
                "machine_tags": "",
                "originalsecret": "e3f8c06f3d",
                "originalformat": "jpg",
                "latitude": 0,
                "longitude": 0,
                "accuracy": 0,
                "context": 0,
                "media": "photo",
                "media_status": "ready",
                "url_sq": "https:\/\/farm4.staticflickr.com\/3040\/3350817519_ce2edafe18_s.jpg",
                "height_sq": 75,
                "width_sq": 75,
                "url_t": "https:\/\/farm4.staticflickr.com\/3040\/3350817519_ce2edafe18_t.jpg",
                "height_t": 67,
                "width_t": 100,
                "url_s": "https:\/\/farm4.staticflickr.com\/3040\/3350817519_ce2edafe18_m.jpg",
                "height_s": "160",
                "width_s": "240",
                "url_m": "https:\/\/farm4.staticflickr.com\/3040\/3350817519_ce2edafe18.jpg",
                "height_m": "333",
                "width_m": "500",
                "url_o": "https:\/\/farm4.staticflickr.com\/3040\/3350817519_e3f8c06f3d_o.jpg",
                "height_o": "2588",
                "width_o": "3888",
                "pathalias": "jeremybrooks"
            }
        },
        {
            "id": "72157644326859808",
            "primary": "4336031973",
            "secret": "d1a66c3707",
            "server": "4016",
            "farm": 5,
            "photos": 22,
            "videos": 0,
            "title": {
                "_content": "Neon Flowers"
            },
            "description": {
                "_content": "Neon flowers.\n\nThis set is managed by <a href=\"http:\/\/www.jeremybrooks.net\/suprsetr\" rel=\"nofollow\">SuprSetr<\/a>"
            },
            "needs_interstitial": 0,
            "visibility_can_see_set": 1,
            "count_views": 0,
            "count_comments": 0,
            "can_comment": 1,
            "date_create": "1400475282",
            "date_update": "1400475285",
            "primary_photo_extras": {
                "license": 2,
                "o_width": "5534",
                "o_height": "3690",
                "dateupload": "1265517015",
                "lastupdate": "1265517023",
                "datetaken": "2010-02-05 17:11:27",
                "datetakengranularity": 0,
                "ownername": "Jeremy Brooks",
                "iconserver": "5332",
                "iconfarm": 6,
                "views": "113",
                "tags": "california usa flower rose neon concord contracostacounty mikesautobody",
                "machine_tags": "",
                "originalsecret": "7d06e2a976",
                "originalformat": "jpg",
                "latitude": 0,
                "longitude": 0,
                "accuracy": 0,
                "context": 0,
                "media": "photo",
                "media_status": "ready",
                "url_sq": "https:\/\/farm5.staticflickr.com\/4016\/4336031973_d1a66c3707_s.jpg",
                "height_sq": 75,
                "width_sq": 75,
                "url_t": "https:\/\/farm5.staticflickr.com\/4016\/4336031973_d1a66c3707_t.jpg",
                "height_t": 67,
                "width_t": 100,
                "url_s": "https:\/\/farm5.staticflickr.com\/4016\/4336031973_d1a66c3707_m.jpg",
                "height_s": "160",
                "width_s": "240",
                "url_m": "https:\/\/farm5.staticflickr.com\/4016\/4336031973_d1a66c3707.jpg",
                "height_m": "333",
                "width_m": "500",
                "url_o": "https:\/\/farm5.staticflickr.com\/4016\/4336031973_7d06e2a976_o.jpg",
                "height_o": "3690",
                "width_o": "5534",
                "pathalias": "jeremybrooks"
            }
        },
        {
            "id": "72157644556683434",
            "primary": "2473047860",
            "secret": "07b7be6cc9",
            "server": "2005",
            "farm": 3,
            "photos": 50,
            "videos": 0,
            "title": {
                "_content": "Fifty Most Interesting"
            },
            "description": {
                "_content": "This set is managed by <a href=\"http:\/\/www.jeremybrooks.net\/suprsetr\" rel=\"nofollow\">SuprSetr<\/a>"
            },
            "needs_interstitial": 0,
            "visibility_can_see_set": 1,
            "count_views": 50,
            "count_comments": 0,
            "can_comment": 1,
            "date_create": "1399434089",
            "date_update": "1399434094",
            "primary_photo_extras": {
                "license": 2,
                "o_width": "2588",
                "o_height": "2588",
                "dateupload": "1210135604",
                "lastupdate": "1368681671",
                "datetaken": "2008-05-05 18:47:24",
                "datetakengranularity": 0,
                "ownername": "Jeremy Brooks",
                "iconserver": "5332",
                "iconfarm": 6,
                "views": "339594",
                "tags": "sanfrancisco california point idiot explore northbeach angry blogged pointing sfist dugg forgetaboutit reddit photographyisnotacrime foundwanting fugetaboutit bluedouche",
                "machine_tags": "",
                "originalsecret": "3a82588d5d",
                "originalformat": "jpg",
                "latitude": 0,
                "longitude": 0,
                "accuracy": 0,
                "context": 0,
                "media": "photo",
                "media_status": "ready",
                "url_sq": "https:\/\/farm3.staticflickr.com\/2005\/2473047860_07b7be6cc9_s.jpg",
                "height_sq": 75,
                "width_sq": 75,
                "url_t": "https:\/\/farm3.staticflickr.com\/2005\/2473047860_07b7be6cc9_t.jpg",
                "height_t": 100,
                "width_t": 100,
                "url_s": "https:\/\/farm3.staticflickr.com\/2005\/2473047860_07b7be6cc9_m.jpg",
                "height_s": "240",
                "width_s": "240",
                "url_m": "https:\/\/farm3.staticflickr.com\/2005\/2473047860_07b7be6cc9.jpg",
                "height_m": "500",
                "width_m": "500",
                "url_o": "https:\/\/farm3.staticflickr.com\/2005\/2473047860_3a82588d5d_o.jpg",
                "height_o": "2588",
                "width_o": "2588",
                "pathalias": "jeremybrooks"
            }
        }
    ]
}, "stat": "ok" }
