{ "photos": {
    "page": 1,
    "pages": 5,
    "perpage": 5,
    "total": 21,
    "photo": [
        {
            "id": "9941510135",
            "owner": "85853333@N00",
            "secret": "f76a4e122e",
            "server": "2855",
            "farm": 3,
            "title": "Testing sharing from new version of Interlacer",
            "ispublic": 1,
            "isfriend": 0,
            "isfamily": 0,
            "license": 2,
            "description": {
                "_content": ""
            },
            "o_width": "1836",
            "o_height": "1836",
            "dateupload": "1380150334",
            "lastupdate": "1380218137",
            "datetaken": "2013-09-25 16:05:34",
            "datetakengranularity": 0,
            "ownername": "Jeremy Brooks",
            "iconserver": "5332",
            "iconfarm": 6,
            "views": "383",
            "tags": "",
            "machine_tags": "",
            "originalsecret": "720b85cdbe",
            "originalformat": "jpg",
            "latitude": 0,
            "longitude": 0,
            "accuracy": 0,
            "context": 0,
            "media": "photo",
            "media_status": "ready",
            "url_sq": "https:\/\/farm3.staticflickr.com\/2855\/9941510135_f76a4e122e_s.jpg",
            "height_sq": 75,
            "width_sq": 75,
            "url_t": "https:\/\/farm3.staticflickr.com\/2855\/9941510135_f76a4e122e_t.jpg",
            "height_t": 100,
            "width_t": 100,
            "url_s": "https:\/\/farm3.staticflickr.com\/2855\/9941510135_f76a4e122e_m.jpg",
            "height_s": "240",
            "width_s": "240",
            "url_q": "https:\/\/farm3.staticflickr.com\/2855\/9941510135_f76a4e122e_q.jpg",
            "height_q": "150",
            "width_q": "150",
            "url_m": "https:\/\/farm3.staticflickr.com\/2855\/9941510135_f76a4e122e.jpg",
            "height_m": "500",
            "width_m": "500",
            "url_n": "https:\/\/farm3.staticflickr.com\/2855\/9941510135_f76a4e122e_n.jpg",
            "height_n": "320",
            "width_n": "320",
            "url_z": "https:\/\/farm3.staticflickr.com\/2855\/9941510135_f76a4e122e_z.jpg",
            "height_z": "640",
            "width_z": "640",
            "url_c": "https:\/\/farm3.staticflickr.com\/2855\/9941510135_f76a4e122e_c.jpg",
            "height_c": "800",
            "width_c": "800",
            "url_l": "https:\/\/farm3.staticflickr.com\/2855\/9941510135_f76a4e122e_b.jpg",
            "height_l": "1024",
            "width_l": "1024",
            "url_o": "https:\/\/farm3.staticflickr.com\/2855\/9941510135_720b85cdbe_o.jpg",
            "height_o": "1836",
            "width_o": "1836",
            "pathalias": "jeremybrooks"
        },
        {
            "id": "9670119310",
            "owner": "85853333@N00",
            "secret": "a8e1b776c4",
            "server": "2852",
            "farm": 3,
            "title": "Transamerica View 20130903",
            "ispublic": 1,
            "isfriend": 0,
            "isfamily": 0,
            "license": 2,
            "description": {
                "_content": ""
            },
            "o_width": "4224",
            "o_height": "5104",
            "dateupload": "1378263166",
            "lastupdate": "1378264228",
            "datetaken": "2013-09-03 19:52:21",
            "datetakengranularity": 0,
            "ownername": "Jeremy Brooks",
            "iconserver": "5332",
            "iconfarm": 6,
            "views": "179",
            "tags": "",
            "machine_tags": "",
            "originalsecret": "d41c9c489d",
            "originalformat": "jpg",
            "latitude": 0,
            "longitude": 0,
            "accuracy": 0,
            "context": 0,
            "media": "photo",
            "media_status": "ready",
            "url_sq": "https:\/\/farm3.staticflickr.com\/2852\/9670119310_a8e1b776c4_s.jpg",
            "height_sq": 75,
            "width_sq": 75,
            "url_t": "https:\/\/farm3.staticflickr.com\/2852\/9670119310_a8e1b776c4_t.jpg",
            "height_t": 100,
            "width_t": 83,
            "url_s": "https:\/\/farm3.staticflickr.com\/2852\/9670119310_a8e1b776c4_m.jpg",
            "height_s": "240",
            "width_s": "199",
            "url_q": "https:\/\/farm3.staticflickr.com\/2852\/9670119310_a8e1b776c4_q.jpg",
            "height_q": "150",
            "width_q": "150",
            "url_m": "https:\/\/farm3.staticflickr.com\/2852\/9670119310_a8e1b776c4.jpg",
            "height_m": "500",
            "width_m": "414",
            "url_n": "https:\/\/farm3.staticflickr.com\/2852\/9670119310_a8e1b776c4_n.jpg",
            "height_n": "320",
            "width_n": "265",
            "url_z": "https:\/\/farm3.staticflickr.com\/2852\/9670119310_a8e1b776c4_z.jpg",
            "height_z": "640",
            "width_z": "529",
            "url_c": "https:\/\/farm3.staticflickr.com\/2852\/9670119310_a8e1b776c4_c.jpg",
            "height_c": "800",
            "width_c": "662",
            "url_l": "https:\/\/farm3.staticflickr.com\/2852\/9670119310_a8e1b776c4_b.jpg",
            "height_l": "1024",
            "width_l": "847",
            "url_o": "https:\/\/farm3.staticflickr.com\/2852\/9670119310_d41c9c489d_o.jpg",
            "height_o": "5104",
            "width_o": "4224",
            "pathalias": "jeremybrooks"
        },
        {
            "id": "8862801214",
            "owner": "85853333@N00",
            "secret": "f0cdaf4eef",
            "server": "5457",
            "farm": 6,
            "title": "SuprSetr Version 2 Now Available",
            "ispublic": 1,
            "isfriend": 0,
            "isfamily": 0,
            "license": 2,
            "description": {
                "_content": "The app page can be found here: <a href=\"http:\/\/www.flickr.com\/services\/apps\/72157622863169717\/\">www.flickr.com\/services\/apps\/72157622863169717\/<\/a>\n\nChanges in Version 2.0.0\n * Requires Java 1.7+\n * Automatically refresh sets at a specified time\n * Added a FavrTagr mode to add tags for only 10, 25, 50, and 100 faves (Hawk Mode!)\n * Fixed bug where FavrTagr preference was saved, but not displayed correctly\n * Download missing set icons when loading sets from Flickr\n * Localized all strings - now just need some translators\n * Tweet box in the Set Editor now wraps words, and is limited to 140 characters\n * Set information shows count of videos in set, if there are any\n * Restricted searches (private, family, friends &amp; family) is working\n * Added a toolbar button to open set in browser\n * Issues with display of sets after changing managed\/unmanaged state fixed\n * Changes to layout of most windows\n * Better error handling for many error cases\n * Added keyboard shortcuts for common functions, including Refresh All (as suggested by Flickr user &quot;that guy named Rob&quot;)\n * Added random sort order option (as suggested by Flickr user &quot;that guy named Rob&quot;)\n * Provide a pop up calendar to select dates (as suggested by Andrew Lighten)\n * Fixed error message when there were no managed sets, and unmanaged sets were hidden (as reported by Andrew Lighten)\n * If the OS supports it, display a custom icon in the title bar of each SuprSetr window\n * Use install4j to build installers\n * Optionally include an appropriate JRE for OS X and Windows installers\n * Check for Desktop API support at startup"
            },
            "o_width": "548",
            "o_height": "628",
            "dateupload": "1369712329",
            "lastupdate": "1369712440",
            "datetaken": "2013-05-27 20:37:43",
            "datetakengranularity": 0,
            "ownername": "Jeremy Brooks",
            "iconserver": "5332",
            "iconfarm": 6,
            "views": "142",
            "tags": "",
            "machine_tags": "",
            "originalsecret": "8a9ea79ff8",
            "originalformat": "png",
            "latitude": 0,
            "longitude": 0,
            "accuracy": 0,
            "context": 0,
            "media": "photo",
            "media_status": "ready",
            "url_sq": "https:\/\/farm6.staticflickr.com\/5457\/8862801214_f0cdaf4eef_s.jpg",
            "height_sq": 75,
            "width_sq": 75,
            "url_t": "https:\/\/farm6.staticflickr.com\/5457\/8862801214_f0cdaf4eef_t.jpg",
            "height_t": 100,
            "width_t": 87,
            "url_s": "https:\/\/farm6.staticflickr.com\/5457\/8862801214_f0cdaf4eef_m.jpg",
            "height_s": "240",
            "width_s": "209",
            "url_q": "https:\/\/farm6.staticflickr.com\/5457\/8862801214_f0cdaf4eef_q.jpg",
            "height_q": "150",
            "width_q": "150",
            "url_m": "https:\/\/farm6.staticflickr.com\/5457\/8862801214_f0cdaf4eef.jpg",
            "height_m": "500",
            "width_m": "436",
            "url_n": "https:\/\/farm6.staticflickr.com\/5457\/8862801214_f0cdaf4eef_n.jpg",
            "height_n": "320",
            "width_n": "279",
            "url_z": "https:\/\/farm6.staticflickr.com\/5457\/8862801214_f0cdaf4eef_z.jpg",
            "height_z": "628",
            "width_z": "548",
            "url_o": "https:\/\/farm6.staticflickr.com\/5457\/8862801214_8a9ea79ff8_o.png",
            "height_o": "628",
            "width_o": "548",
            "pathalias": "jeremybrooks"
        },
        {
            "id": "8662977059",
            "owner": "85853333@N00",
            "secret": "593387a6cd",
            "server": "8254",
            "farm": 9,
            "title": "Prints",
            "ispublic": 1,
            "isfriend": 0,
            "isfamily": 0,
            "license": 2,
            "description": {
                "_content": "Prints of images from the Transamerica View project. These are available as rewards for Kickstarter backers. Kickstarter project is launching soon!"
            },
            "o_width": "4940",
            "o_height": "3293",
            "dateupload": "1366401104",
            "lastupdate": "1366426860",
            "datetaken": "2013-04-19 10:34:51",
            "datetakengranularity": 0,
            "ownername": "Jeremy Brooks",
            "iconserver": "5332",
            "iconfarm": 6,
            "views": "118",
            "tags": "",
            "machine_tags": "",
            "originalsecret": "5493cffc12",
            "originalformat": "jpg",
            "latitude": 0,
            "longitude": 0,
            "accuracy": 0,
            "context": 0,
            "media": "photo",
            "media_status": "ready",
            "url_sq": "https:\/\/farm9.staticflickr.com\/8254\/8662977059_593387a6cd_s.jpg",
            "height_sq": 75,
            "width_sq": 75,
            "url_t": "https:\/\/farm9.staticflickr.com\/8254\/8662977059_593387a6cd_t.jpg",
            "height_t": 67,
            "width_t": 100,
            "url_s": "https:\/\/farm9.staticflickr.com\/8254\/8662977059_593387a6cd_m.jpg",
            "height_s": "160",
            "width_s": "240",
            "url_q": "https:\/\/farm9.staticflickr.com\/8254\/8662977059_593387a6cd_q.jpg",
            "height_q": "150",
            "width_q": "150",
            "url_m": "https:\/\/farm9.staticflickr.com\/8254\/8662977059_593387a6cd.jpg",
            "height_m": "333",
            "width_m": "500",
            "url_n": "https:\/\/farm9.staticflickr.com\/8254\/8662977059_593387a6cd_n.jpg",
            "height_n": "213",
            "width_n": "320",
            "url_z": "https:\/\/farm9.staticflickr.com\/8254\/8662977059_593387a6cd_z.jpg",
            "height_z": "427",
            "width_z": "640",
            "url_c": "https:\/\/farm9.staticflickr.com\/8254\/8662977059_593387a6cd_c.jpg",
            "height_c": "534",
            "width_c": "800",
            "url_l": "https:\/\/farm9.staticflickr.com\/8254\/8662977059_593387a6cd_b.jpg",
            "height_l": "683",
            "width_l": "1024",
            "url_o": "https:\/\/farm9.staticflickr.com\/8254\/8662977059_5493cffc12_o.jpg",
            "height_o": "3293",
            "width_o": "4940",
            "pathalias": "jeremybrooks"
        },
        {
            "id": "7933850214",
            "owner": "85853333@N00",
            "secret": "ed1d38afcc",
            "server": "8444",
            "farm": 9,
            "title": "IMG_6181",
            "ispublic": 0,
            "isfriend": 0,
            "isfamily": 0,
            "license": 2,
            "description": {
                "_content": ""
            },
            "o_width": "3264",
            "o_height": "2448",
            "dateupload": "1346808208",
            "lastupdate": "1346808209",
            "datetaken": "2012-09-04 18:16:13",
            "datetakengranularity": 0,
            "ownername": "Jeremy Brooks",
            "iconserver": "5332",
            "iconfarm": 6,
            "views": 0,
            "tags": "",
            "machine_tags": "",
            "originalsecret": "6e7402ce13",
            "originalformat": "jpg",
            "latitude": 37.910666,
            "longitude": -122.309,
            "accuracy": 16,
            "context": 0,
            "place_id": "FqKFChNUV7NDrLWIhw",
            "woeid": "55969430",
            "geo_is_family": 0,
            "geo_is_friend": 0,
            "geo_is_contact": 0,
            "geo_is_public": 1,
            "media": "photo",
            "media_status": "ready",
            "url_sq": "https:\/\/farm9.staticflickr.com\/8444\/7933850214_ed1d38afcc_s.jpg",
            "height_sq": 75,
            "width_sq": 75,
            "url_t": "https:\/\/farm9.staticflickr.com\/8444\/7933850214_ed1d38afcc_t.jpg",
            "height_t": 100,
            "width_t": 75,
            "url_s": "https:\/\/farm9.staticflickr.com\/8444\/7933850214_ed1d38afcc_m.jpg",
            "height_s": "240",
            "width_s": "180",
            "url_q": "https:\/\/farm9.staticflickr.com\/8444\/7933850214_ed1d38afcc_q.jpg",
            "height_q": "150",
            "width_q": "150",
            "url_m": "https:\/\/farm9.staticflickr.com\/8444\/7933850214_ed1d38afcc.jpg",
            "height_m": "500",
            "width_m": "375",
            "url_n": "https:\/\/farm9.staticflickr.com\/8444\/7933850214_ed1d38afcc_n.jpg",
            "height_n": "320",
            "width_n": "240",
            "url_z": "https:\/\/farm9.staticflickr.com\/8444\/7933850214_ed1d38afcc_z.jpg",
            "height_z": "640",
            "width_z": "480",
            "url_c": "https:\/\/farm9.staticflickr.com\/8444\/7933850214_ed1d38afcc_c.jpg",
            "height_c": "800",
            "width_c": "600",
            "url_l": "https:\/\/farm9.staticflickr.com\/8444\/7933850214_ed1d38afcc_b.jpg",
            "height_l": "1024",
            "width_l": "768",
            "url_o": "https:\/\/farm9.staticflickr.com\/8444\/7933850214_6e7402ce13_o.jpg",
            "height_o": "2448",
            "width_o": "3264",
            "pathalias": "jeremybrooks"
        }
    ]
}, "stat": "ok" }
