{ "photos": {
    "page": 1,
    "pages": 34,
    "perpage": 5,
    "total": "167",
    "photo": [
        {
            "id": "13939880800",
            "owner": "85853333@N00",
            "secret": "d46dd50329",
            "server": "5273",
            "farm": 6,
            "title": "Hotel Ambassador",
            "ispublic": 1,
            "isfriend": 0,
            "isfamily": 0,
            "license": 2,
            "description": {
                "_content": ""
            },
            "o_width": "3744",
            "o_height": "5616",
            "dateupload": "1399422719",
            "lastupdate": "1399426876",
            "datetaken": "2014-02-10 18:38:54",
            "datetakengranularity": 0,
            "ownername": "Jeremy Brooks",
            "iconserver": "5332",
            "iconfarm": 6,
            "views": 70,
            "tags": "sanfrancisco california blackandwhite bw usa hotel blackwhite neon sanfranciscocounty",
            "machine_tags": "",
            "originalsecret": "72f2fd3ff2",
            "originalformat": "jpg",
            "latitude": 0,
            "longitude": 0,
            "accuracy": 0,
            "context": 0,
            "media": "photo",
            "media_status": "ready",
            "url_sq": "https:\/\/farm6.staticflickr.com\/5273\/13939880800_d46dd50329_s.jpg",
            "height_sq": 75,
            "width_sq": 75,
            "url_t": "https:\/\/farm6.staticflickr.com\/5273\/13939880800_d46dd50329_t.jpg",
            "height_t": 100,
            "width_t": 67,
            "url_s": "https:\/\/farm6.staticflickr.com\/5273\/13939880800_d46dd50329_m.jpg",
            "height_s": "240",
            "width_s": "160",
            "url_q": "https:\/\/farm6.staticflickr.com\/5273\/13939880800_d46dd50329_q.jpg",
            "height_q": "150",
            "width_q": "150",
            "url_m": "https:\/\/farm6.staticflickr.com\/5273\/13939880800_d46dd50329.jpg",
            "height_m": "500",
            "width_m": "333",
            "url_n": "https:\/\/farm6.staticflickr.com\/5273\/13939880800_d46dd50329_n.jpg",
            "height_n": "320",
            "width_n": "213",
            "url_z": "https:\/\/farm6.staticflickr.com\/5273\/13939880800_d46dd50329_z.jpg",
            "height_z": "640",
            "width_z": "427",
            "url_c": "https:\/\/farm6.staticflickr.com\/5273\/13939880800_d46dd50329_c.jpg",
            "height_c": "800",
            "width_c": "534",
            "url_l": "https:\/\/farm6.staticflickr.com\/5273\/13939880800_d46dd50329_b.jpg",
            "height_l": "1024",
            "width_l": "683",
            "url_o": "https:\/\/farm6.staticflickr.com\/5273\/13939880800_72f2fd3ff2_o.jpg",
            "height_o": "5616",
            "width_o": "3744",
            "pathalias": "jeremybrooks"
        },
        {
            "id": "13939911198",
            "owner": "85853333@N00",
            "secret": "a85294f0ce",
            "server": "2931",
            "farm": 3,
            "title": "I Never Left The Room",
            "ispublic": 1,
            "isfriend": 0,
            "isfamily": 0,
            "license": 2,
            "description": {
                "_content": ""
            },
            "o_width": "2448",
            "o_height": "2448",
            "dateupload": "1399423050",
            "lastupdate": "1399469162",
            "datetaken": "2013-12-24 12:15:24",
            "datetakengranularity": 0,
            "ownername": "Jeremy Brooks",
            "iconserver": "5332",
            "iconfarm": 6,
            "views": "157",
            "tags": "sanfrancisco california usa tape northbeach iphone sanfranciscocounty elvischrist tapepoem hipstamatic",
            "machine_tags": "",
            "originalsecret": "f880dc77fe",
            "originalformat": "jpg",
            "latitude": 0,
            "longitude": 0,
            "accuracy": 0,
            "context": 0,
            "media": "photo",
            "media_status": "ready",
            "url_sq": "https:\/\/farm3.staticflickr.com\/2931\/13939911198_a85294f0ce_s.jpg",
            "height_sq": 75,
            "width_sq": 75,
            "url_t": "https:\/\/farm3.staticflickr.com\/2931\/13939911198_a85294f0ce_t.jpg",
            "height_t": 100,
            "width_t": 100,
            "url_s": "https:\/\/farm3.staticflickr.com\/2931\/13939911198_a85294f0ce_m.jpg",
            "height_s": "240",
            "width_s": "240",
            "url_q": "https:\/\/farm3.staticflickr.com\/2931\/13939911198_a85294f0ce_q.jpg",
            "height_q": "150",
            "width_q": "150",
            "url_m": "https:\/\/farm3.staticflickr.com\/2931\/13939911198_a85294f0ce.jpg",
            "height_m": "500",
            "width_m": "500",
            "url_n": "https:\/\/farm3.staticflickr.com\/2931\/13939911198_a85294f0ce_n.jpg",
            "height_n": "320",
            "width_n": "320",
            "url_z": "https:\/\/farm3.staticflickr.com\/2931\/13939911198_a85294f0ce_z.jpg",
            "height_z": "640",
            "width_z": "640",
            "url_c": "https:\/\/farm3.staticflickr.com\/2931\/13939911198_a85294f0ce_c.jpg",
            "height_c": "800",
            "width_c": "800",
            "url_l": "https:\/\/farm3.staticflickr.com\/2931\/13939911198_a85294f0ce_b.jpg",
            "height_l": "1024",
            "width_l": "1024",
            "url_o": "https:\/\/farm3.staticflickr.com\/2931\/13939911198_f880dc77fe_o.jpg",
            "height_o": "2448",
            "width_o": "2448",
            "pathalias": "jeremybrooks"
        },
        {
            "id": "13939954249",
            "owner": "85853333@N00",
            "secret": "281fb61ee2",
            "server": "2926",
            "farm": 3,
            "title": "Stomping Ground",
            "ispublic": 1,
            "isfriend": 0,
            "isfamily": 0,
            "license": 2,
            "description": {
                "_content": ""
            },
            "o_width": "5616",
            "o_height": "3744",
            "dateupload": "1399424059",
            "lastupdate": "1399469113",
            "datetaken": "2013-01-21 09:35:55",
            "datetakengranularity": 0,
            "ownername": "Jeremy Brooks",
            "iconserver": "5332",
            "iconfarm": 6,
            "views": "185",
            "tags": "door atlanta usa georgia sticker open fultoncounty",
            "machine_tags": "",
            "originalsecret": "d1696b065d",
            "originalformat": "jpg",
            "latitude": 0,
            "longitude": 0,
            "accuracy": 0,
            "context": 0,
            "media": "photo",
            "media_status": "ready",
            "url_sq": "https:\/\/farm3.staticflickr.com\/2926\/13939954249_281fb61ee2_s.jpg",
            "height_sq": 75,
            "width_sq": 75,
            "url_t": "https:\/\/farm3.staticflickr.com\/2926\/13939954249_281fb61ee2_t.jpg",
            "height_t": 67,
            "width_t": 100,
            "url_s": "https:\/\/farm3.staticflickr.com\/2926\/13939954249_281fb61ee2_m.jpg",
            "height_s": "160",
            "width_s": "240",
            "url_q": "https:\/\/farm3.staticflickr.com\/2926\/13939954249_281fb61ee2_q.jpg",
            "height_q": "150",
            "width_q": "150",
            "url_m": "https:\/\/farm3.staticflickr.com\/2926\/13939954249_281fb61ee2.jpg",
            "height_m": "333",
            "width_m": "500",
            "url_n": "https:\/\/farm3.staticflickr.com\/2926\/13939954249_281fb61ee2_n.jpg",
            "height_n": "213",
            "width_n": "320",
            "url_z": "https:\/\/farm3.staticflickr.com\/2926\/13939954249_281fb61ee2_z.jpg",
            "height_z": "427",
            "width_z": "640",
            "url_c": "https:\/\/farm3.staticflickr.com\/2926\/13939954249_281fb61ee2_c.jpg",
            "height_c": "534",
            "width_c": "800",
            "url_l": "https:\/\/farm3.staticflickr.com\/2926\/13939954249_281fb61ee2_b.jpg",
            "height_l": "683",
            "width_l": "1024",
            "url_o": "https:\/\/farm3.staticflickr.com\/2926\/13939954249_d1696b065d_o.jpg",
            "height_o": "3744",
            "width_o": "5616",
            "pathalias": "jeremybrooks"
        },
        {
            "id": "13939965308",
            "owner": "85853333@N00",
            "secret": "6e6539bfa4",
            "server": "7367",
            "farm": 8,
            "title": "Spring In San Francisco",
            "ispublic": 1,
            "isfriend": 0,
            "isfamily": 0,
            "license": 2,
            "description": {
                "_content": ""
            },
            "o_width": "2448",
            "o_height": "2448",
            "dateupload": "1399423698",
            "lastupdate": "1399469096",
            "datetaken": "2014-03-31 16:11:05",
            "datetakengranularity": 0,
            "ownername": "Jeremy Brooks",
            "iconserver": "5332",
            "iconfarm": 6,
            "views": "220",
            "tags": "sanfrancisco california street camera people usa reflection wet water rain umbrella umbrellas iphone sanfranciscocounty",
            "machine_tags": "",
            "originalsecret": "8ae4de7131",
            "originalformat": "jpg",
            "latitude": 0,
            "longitude": 0,
            "accuracy": 0,
            "context": 0,
            "media": "photo",
            "media_status": "ready",
            "url_sq": "https:\/\/farm8.staticflickr.com\/7367\/13939965308_6e6539bfa4_s.jpg",
            "height_sq": 75,
            "width_sq": 75,
            "url_t": "https:\/\/farm8.staticflickr.com\/7367\/13939965308_6e6539bfa4_t.jpg",
            "height_t": 100,
            "width_t": 100,
            "url_s": "https:\/\/farm8.staticflickr.com\/7367\/13939965308_6e6539bfa4_m.jpg",
            "height_s": "240",
            "width_s": "240",
            "url_q": "https:\/\/farm8.staticflickr.com\/7367\/13939965308_6e6539bfa4_q.jpg",
            "height_q": "150",
            "width_q": "150",
            "url_m": "https:\/\/farm8.staticflickr.com\/7367\/13939965308_6e6539bfa4.jpg",
            "height_m": "500",
            "width_m": "500",
            "url_n": "https:\/\/farm8.staticflickr.com\/7367\/13939965308_6e6539bfa4_n.jpg",
            "height_n": "320",
            "width_n": "320",
            "url_z": "https:\/\/farm8.staticflickr.com\/7367\/13939965308_6e6539bfa4_z.jpg",
            "height_z": "640",
            "width_z": "640",
            "url_c": "https:\/\/farm8.staticflickr.com\/7367\/13939965308_6e6539bfa4_c.jpg",
            "height_c": "800",
            "width_c": "800",
            "url_l": "https:\/\/farm8.staticflickr.com\/7367\/13939965308_6e6539bfa4_b.jpg",
            "height_l": "1024",
            "width_l": "1024",
            "url_o": "https:\/\/farm8.staticflickr.com\/7367\/13939965308_8ae4de7131_o.jpg",
            "height_o": "2448",
            "width_o": "2448",
            "pathalias": "jeremybrooks"
        },
        {
            "id": "13948605358",
            "owner": "85853333@N00",
            "secret": "a8e2a31923",
            "server": "2919",
            "farm": 3,
            "title": "City Transport",
            "ispublic": 1,
            "isfriend": 0,
            "isfamily": 0,
            "license": 2,
            "description": {
                "_content": ""
            },
            "o_width": "2448",
            "o_height": "2448",
            "dateupload": "1399524828",
            "lastupdate": "1399524833",
            "datetaken": "2014-01-15 11:38:46",
            "datetakengranularity": 0,
            "ownername": "Jeremy Brooks",
            "iconserver": "5332",
            "iconfarm": 6,
            "views": 80,
            "tags": "sanfrancisco california usa scooter iphone sanfranciscocounty",
            "machine_tags": "",
            "originalsecret": "b2a6f2f611",
            "originalformat": "jpg",
            "latitude": 0,
            "longitude": 0,
            "accuracy": 0,
            "context": 0,
            "media": "photo",
            "media_status": "ready",
            "url_sq": "https:\/\/farm3.staticflickr.com\/2919\/13948605358_a8e2a31923_s.jpg",
            "height_sq": 75,
            "width_sq": 75,
            "url_t": "https:\/\/farm3.staticflickr.com\/2919\/13948605358_a8e2a31923_t.jpg",
            "height_t": 100,
            "width_t": 100,
            "url_s": "https:\/\/farm3.staticflickr.com\/2919\/13948605358_a8e2a31923_m.jpg",
            "height_s": "240",
            "width_s": "240",
            "url_q": "https:\/\/farm3.staticflickr.com\/2919\/13948605358_a8e2a31923_q.jpg",
            "height_q": "150",
            "width_q": "150",
            "url_m": "https:\/\/farm3.staticflickr.com\/2919\/13948605358_a8e2a31923.jpg",
            "height_m": "500",
            "width_m": "500",
            "url_n": "https:\/\/farm3.staticflickr.com\/2919\/13948605358_a8e2a31923_n.jpg",
            "height_n": "320",
            "width_n": "320",
            "url_z": "https:\/\/farm3.staticflickr.com\/2919\/13948605358_a8e2a31923_z.jpg",
            "height_z": "640",
            "width_z": "640",
            "url_c": "https:\/\/farm3.staticflickr.com\/2919\/13948605358_a8e2a31923_c.jpg",
            "height_c": "800",
            "width_c": "800",
            "url_l": "https:\/\/farm3.staticflickr.com\/2919\/13948605358_a8e2a31923_b.jpg",
            "height_l": "1024",
            "width_l": "1024",
            "url_o": "https:\/\/farm3.staticflickr.com\/2919\/13948605358_b2a6f2f611_o.jpg",
            "height_o": "2448",
            "width_o": "2448",
            "pathalias": "jeremybrooks"
        }
    ]
}, "stat": "ok" }