{ "photos": {
    "photo": [
        {
            "id": "14097029867",
            "secret": "d31e42a8fa",
            "server": "5232",
            "farm": 6,
            "owner": "65609008@N00",
            "username": "the waving cat",
            "title": "Muir Woods",
            "ispublic": 1,
            "isfriend": 0,
            "isfamily": 0,
            "license": 1,
            "description": {
                "_content": "San Francisco, May 2014.\n\nMuir Woords"
            },
            "o_width": "5472",
            "o_height": "3648",
            "dateupload": "1401203955",
            "lastupdate": "1401203964",
            "datetaken": "2014-05-25 23:11:14",
            "datetakengranularity": 0,
            "ownername": "the waving cat",
            "iconserver": 26,
            "iconfarm": 1,
            "views": 2,
            "tags": "sanfrancisco travel usa muirwoods",
            "machine_tags": "",
            "originalsecret": "c9a3f76573",
            "originalformat": "jpg",
            "latitude": 0,
            "longitude": 0,
            "accuracy": 0,
            "context": 0,
            "media": "photo",
            "media_status": "ready",
            "url_sq": "https:\/\/farm6.staticflickr.com\/5232\/14097029867_d31e42a8fa_s.jpg",
            "height_sq": 75,
            "width_sq": 75,
            "url_t": "https:\/\/farm6.staticflickr.com\/5232\/14097029867_d31e42a8fa_t.jpg",
            "height_t": 67,
            "width_t": 100,
            "url_s": "https:\/\/farm6.staticflickr.com\/5232\/14097029867_d31e42a8fa_m.jpg",
            "height_s": "160",
            "width_s": "240",
            "url_q": "https:\/\/farm6.staticflickr.com\/5232\/14097029867_d31e42a8fa_q.jpg",
            "height_q": "150",
            "width_q": "150",
            "url_m": "https:\/\/farm6.staticflickr.com\/5232\/14097029867_d31e42a8fa.jpg",
            "height_m": "333",
            "width_m": "500",
            "url_n": "https:\/\/farm6.staticflickr.com\/5232\/14097029867_d31e42a8fa_n.jpg",
            "height_n": "213",
            "width_n": "320",
            "url_z": "https:\/\/farm6.staticflickr.com\/5232\/14097029867_d31e42a8fa_z.jpg",
            "height_z": "427",
            "width_z": "640",
            "url_c": "https:\/\/farm6.staticflickr.com\/5232\/14097029867_d31e42a8fa_c.jpg",
            "height_c": "534",
            "width_c": "800",
            "url_l": "https:\/\/farm6.staticflickr.com\/5232\/14097029867_d31e42a8fa_b.jpg",
            "height_l": "683",
            "width_l": "1024",
            "url_o": "https:\/\/farm6.staticflickr.com\/5232\/14097029867_c9a3f76573_o.jpg",
            "height_o": "3648",
            "width_o": "5472",
            "pathalias": "thewavingcat"
        },
        {
            "id": "14096962580",
            "secret": "2bd9613bf6",
            "server": "3667",
            "farm": 4,
            "owner": "65609008@N00",
            "username": "the waving cat",
            "title": "Salmon",
            "ispublic": 1,
            "isfriend": 0,
            "isfamily": 0,
            "license": 1,
            "description": {
                "_content": "San Francisco, May 2014.\n\nMuir Woords"
            },
            "o_width": "5472",
            "o_height": "3648",
            "dateupload": "1401203829",
            "lastupdate": "1401203849",
            "datetaken": "2014-05-25 23:09:07",
            "datetakengranularity": 0,
            "ownername": "the waving cat",
            "iconserver": 26,
            "iconfarm": 1,
            "views": 0,
            "tags": "sanfrancisco travel usa muirwoods",
            "machine_tags": "",
            "originalsecret": "092e1bd3d2",
            "originalformat": "jpg",
            "latitude": 0,
            "longitude": 0,
            "accuracy": 0,
            "context": 0,
            "media": "photo",
            "media_status": "ready",
            "url_sq": "https:\/\/farm4.staticflickr.com\/3667\/14096962580_2bd9613bf6_s.jpg",
            "height_sq": 75,
            "width_sq": 75,
            "url_t": "https:\/\/farm4.staticflickr.com\/3667\/14096962580_2bd9613bf6_t.jpg",
            "height_t": 67,
            "width_t": 100,
            "url_s": "https:\/\/farm4.staticflickr.com\/3667\/14096962580_2bd9613bf6_m.jpg",
            "height_s": "160",
            "width_s": "240",
            "url_q": "https:\/\/farm4.staticflickr.com\/3667\/14096962580_2bd9613bf6_q.jpg",
            "height_q": "150",
            "width_q": "150",
            "url_m": "https:\/\/farm4.staticflickr.com\/3667\/14096962580_2bd9613bf6.jpg",
            "height_m": "333",
            "width_m": "500",
            "url_n": "https:\/\/farm4.staticflickr.com\/3667\/14096962580_2bd9613bf6_n.jpg",
            "height_n": "213",
            "width_n": "320",
            "url_z": "https:\/\/farm4.staticflickr.com\/3667\/14096962580_2bd9613bf6_z.jpg",
            "height_z": "427",
            "width_z": "640",
            "url_c": "https:\/\/farm4.staticflickr.com\/3667\/14096962580_2bd9613bf6_c.jpg",
            "height_c": "534",
            "width_c": "800",
            "url_l": "https:\/\/farm4.staticflickr.com\/3667\/14096962580_2bd9613bf6_b.jpg",
            "height_l": "683",
            "width_l": "1024",
            "url_o": "https:\/\/farm4.staticflickr.com\/3667\/14096962580_092e1bd3d2_o.jpg",
            "height_o": "3648",
            "width_o": "5472",
            "pathalias": "thewavingcat"
        },
        {
            "id": "14096950870",
            "secret": "d0506081ce",
            "server": "3719",
            "farm": 4,
            "owner": "65609008@N00",
            "username": "the waving cat",
            "title": "Muir Woods",
            "ispublic": 1,
            "isfriend": 0,
            "isfamily": 0,
            "license": 1,
            "description": {
                "_content": "San Francisco, May 2014.\n\nMuir Woords"
            },
            "o_width": "5472",
            "o_height": "3648",
            "dateupload": "1401203721",
            "lastupdate": "1401203730",
            "datetaken": "2014-05-25 22:53:59",
            "datetakengranularity": 0,
            "ownername": "the waving cat",
            "iconserver": 26,
            "iconfarm": 1,
            "views": 1,
            "tags": "sanfrancisco travel usa muirwoods",
            "machine_tags": "",
            "originalsecret": "09ccda04eb",
            "originalformat": "jpg",
            "latitude": 0,
            "longitude": 0,
            "accuracy": 0,
            "context": 0,
            "media": "photo",
            "media_status": "ready",
            "url_sq": "https:\/\/farm4.staticflickr.com\/3719\/14096950870_d0506081ce_s.jpg",
            "height_sq": 75,
            "width_sq": 75,
            "url_t": "https:\/\/farm4.staticflickr.com\/3719\/14096950870_d0506081ce_t.jpg",
            "height_t": 67,
            "width_t": 100,
            "url_s": "https:\/\/farm4.staticflickr.com\/3719\/14096950870_d0506081ce_m.jpg",
            "height_s": "160",
            "width_s": "240",
            "url_q": "https:\/\/farm4.staticflickr.com\/3719\/14096950870_d0506081ce_q.jpg",
            "height_q": "150",
            "width_q": "150",
            "url_m": "https:\/\/farm4.staticflickr.com\/3719\/14096950870_d0506081ce.jpg",
            "height_m": "333",
            "width_m": "500",
            "url_n": "https:\/\/farm4.staticflickr.com\/3719\/14096950870_d0506081ce_n.jpg",
            "height_n": "213",
            "width_n": "320",
            "url_z": "https:\/\/farm4.staticflickr.com\/3719\/14096950870_d0506081ce_z.jpg",
            "height_z": "427",
            "width_z": "640",
            "url_c": "https:\/\/farm4.staticflickr.com\/3719\/14096950870_d0506081ce_c.jpg",
            "height_c": "534",
            "width_c": "800",
            "url_l": "https:\/\/farm4.staticflickr.com\/3719\/14096950870_d0506081ce_b.jpg",
            "height_l": "683",
            "width_l": "1024",
            "url_o": "https:\/\/farm4.staticflickr.com\/3719\/14096950870_09ccda04eb_o.jpg",
            "height_o": "3648",
            "width_o": "5472",
            "pathalias": "thewavingcat"
        },
        {
            "id": "14260415676",
            "secret": "e4539521c5",
            "server": "5497",
            "farm": 6,
            "owner": "65609008@N00",
            "username": "the waving cat",
            "title": "Muir Woods",
            "ispublic": 1,
            "isfriend": 0,
            "isfamily": 0,
            "license": 1,
            "description": {
                "_content": "San Francisco, May 2014.\n\nMuir Woords"
            },
            "o_width": "5472",
            "o_height": "3648",
            "dateupload": "1401203451",
            "lastupdate": "1401203469",
            "datetaken": "2014-05-25 22:24:08",
            "datetakengranularity": 0,
            "ownername": "the waving cat",
            "iconserver": 26,
            "iconfarm": 1,
            "views": 1,
            "tags": "sanfrancisco travel usa muirwoods",
            "machine_tags": "",
            "originalsecret": "4a6c93e8d4",
            "originalformat": "jpg",
            "latitude": 0,
            "longitude": 0,
            "accuracy": 0,
            "context": 0,
            "media": "photo",
            "media_status": "ready",
            "url_sq": "https:\/\/farm6.staticflickr.com\/5497\/14260415676_e4539521c5_s.jpg",
            "height_sq": 75,
            "width_sq": 75,
            "url_t": "https:\/\/farm6.staticflickr.com\/5497\/14260415676_e4539521c5_t.jpg",
            "height_t": 67,
            "width_t": 100,
            "url_s": "https:\/\/farm6.staticflickr.com\/5497\/14260415676_e4539521c5_m.jpg",
            "height_s": "160",
            "width_s": "240",
            "url_q": "https:\/\/farm6.staticflickr.com\/5497\/14260415676_e4539521c5_q.jpg",
            "height_q": "150",
            "width_q": "150",
            "url_m": "https:\/\/farm6.staticflickr.com\/5497\/14260415676_e4539521c5.jpg",
            "height_m": "333",
            "width_m": "500",
            "url_n": "https:\/\/farm6.staticflickr.com\/5497\/14260415676_e4539521c5_n.jpg",
            "height_n": "213",
            "width_n": "320",
            "url_z": "https:\/\/farm6.staticflickr.com\/5497\/14260415676_e4539521c5_z.jpg",
            "height_z": "427",
            "width_z": "640",
            "url_c": "https:\/\/farm6.staticflickr.com\/5497\/14260415676_e4539521c5_c.jpg",
            "height_c": "534",
            "width_c": "800",
            "url_l": "https:\/\/farm6.staticflickr.com\/5497\/14260415676_e4539521c5_b.jpg",
            "height_l": "683",
            "width_l": "1024",
            "url_o": "https:\/\/farm6.staticflickr.com\/5497\/14260415676_4a6c93e8d4_o.jpg",
            "height_o": "3648",
            "width_o": "5472",
            "pathalias": "thewavingcat"
        },
        {
            "id": "14283044684",
            "secret": "f1eabc475a",
            "server": "2903",
            "farm": 3,
            "owner": "65609008@N00",
            "username": "the waving cat",
            "title": "Muir Woods",
            "ispublic": 1,
            "isfriend": 0,
            "isfamily": 0,
            "license": 1,
            "description": {
                "_content": "San Francisco, May 2014.\n\nMuir Woords"
            },
            "o_width": "3648",
            "o_height": "5472",
            "dateupload": "1401203344",
            "lastupdate": "1401203352",
            "datetaken": "2014-05-25 22:21:25",
            "datetakengranularity": 0,
            "ownername": "the waving cat",
            "iconserver": 26,
            "iconfarm": 1,
            "views": 1,
            "tags": "sanfrancisco travel usa muirwoods",
            "machine_tags": "",
            "originalsecret": "3b340679a8",
            "originalformat": "jpg",
            "latitude": 0,
            "longitude": 0,
            "accuracy": 0,
            "context": 0,
            "media": "photo",
            "media_status": "ready",
            "url_sq": "https:\/\/farm3.staticflickr.com\/2903\/14283044684_f1eabc475a_s.jpg",
            "height_sq": 75,
            "width_sq": 75,
            "url_t": "https:\/\/farm3.staticflickr.com\/2903\/14283044684_f1eabc475a_t.jpg",
            "height_t": 100,
            "width_t": 67,
            "url_s": "https:\/\/farm3.staticflickr.com\/2903\/14283044684_f1eabc475a_m.jpg",
            "height_s": "240",
            "width_s": "160",
            "url_q": "https:\/\/farm3.staticflickr.com\/2903\/14283044684_f1eabc475a_q.jpg",
            "height_q": "150",
            "width_q": "150",
            "url_m": "https:\/\/farm3.staticflickr.com\/2903\/14283044684_f1eabc475a.jpg",
            "height_m": "500",
            "width_m": "333",
            "url_n": "https:\/\/farm3.staticflickr.com\/2903\/14283044684_f1eabc475a_n.jpg",
            "height_n": "320",
            "width_n": "213",
            "url_z": "https:\/\/farm3.staticflickr.com\/2903\/14283044684_f1eabc475a_z.jpg",
            "height_z": "640",
            "width_z": "427",
            "url_c": "https:\/\/farm3.staticflickr.com\/2903\/14283044684_f1eabc475a_c.jpg",
            "height_c": "800",
            "width_c": "534",
            "url_l": "https:\/\/farm3.staticflickr.com\/2903\/14283044684_f1eabc475a_b.jpg",
            "height_l": "1024",
            "width_l": "683",
            "url_o": "https:\/\/farm3.staticflickr.com\/2903\/14283044684_3b340679a8_o.jpg",
            "height_o": "5472",
            "width_o": "3648",
            "pathalias": "thewavingcat"
        },
        {
            "id": "14259926396",
            "secret": "10965d08b0",
            "server": "3686",
            "farm": 4,
            "owner": "45534307@N05",
            "username": "tlal2",
            "title": "Mmmmh... My morning vice! Iced Coffee at Everyman Espresso",
            "ispublic": 1,
            "isfriend": 0,
            "isfamily": 0,
            "license": 0,
            "description": {
                "_content": ""
            },
            "dateupload": "1401199074",
            "lastupdate": "1401199081",
            "datetaken": "2014-05-27 13:56:51",
            "datetakengranularity": 0,
            "ownername": "tlal2",
            "iconserver": "2650",
            "iconfarm": 3,
            "views": 2,
            "tags": "",
            "machine_tags": "",
            "latitude": 0,
            "longitude": 0,
            "accuracy": 0,
            "context": 0,
            "media": "photo",
            "media_status": "ready",
            "url_sq": "https:\/\/farm4.staticflickr.com\/3686\/14259926396_10965d08b0_s.jpg",
            "height_sq": 75,
            "width_sq": 75,
            "url_t": "https:\/\/farm4.staticflickr.com\/3686\/14259926396_10965d08b0_t.jpg",
            "height_t": 100,
            "width_t": 75,
            "url_s": "https:\/\/farm4.staticflickr.com\/3686\/14259926396_10965d08b0_m.jpg",
            "height_s": "240",
            "width_s": "180",
            "url_q": "https:\/\/farm4.staticflickr.com\/3686\/14259926396_10965d08b0_q.jpg",
            "height_q": "150",
            "width_q": "150",
            "url_m": "https:\/\/farm4.staticflickr.com\/3686\/14259926396_10965d08b0.jpg",
            "height_m": "500",
            "width_m": "375",
            "url_n": "https:\/\/farm4.staticflickr.com\/3686\/14259926396_10965d08b0_n.jpg",
            "height_n": "320",
            "width_n": "240",
            "url_z": "https:\/\/farm4.staticflickr.com\/3686\/14259926396_10965d08b0_z.jpg",
            "height_z": "640",
            "width_z": "480",
            "url_c": "https:\/\/farm4.staticflickr.com\/3686\/14259926396_10965d08b0_c.jpg",
            "height_c": "800",
            "width_c": "600",
            "url_l": "https:\/\/farm4.staticflickr.com\/3686\/14259926396_10965d08b0_b.jpg",
            "height_l": "1024",
            "width_l": "768",
            "pathalias": "tlal2"
        },
        {
            "id": "14278310611",
            "secret": "828b178458",
            "server": "3753",
            "farm": 4,
            "owner": "27818145@N00",
            "username": "Fabio Sabatini",
            "title": "Awakening",
            "ispublic": 1,
            "isfriend": 0,
            "isfamily": 0,
            "license": 0,
            "description": {
                "_content": "Olympus OM-2n + Zuiko 50mm f\/1.2 + Ilford HP5 Plus 400"
            },
            "dateupload": "1401182516",
            "lastupdate": "1401207555",
            "datetaken": "2014-05-17 00:11:33",
            "datetakengranularity": 0,
            "ownername": "Fabio Sabatini",
            "iconserver": "8395",
            "iconfarm": 9,
            "views": "927",
            "tags": "film girl simona ilford olympusom2n hp5plus400 zuiko50mmf12",
            "machine_tags": "",
            "latitude": 0,
            "longitude": 0,
            "accuracy": 0,
            "context": 0,
            "media": "photo",
            "media_status": "ready",
            "url_sq": "https:\/\/farm4.staticflickr.com\/3753\/14278310611_828b178458_s.jpg",
            "height_sq": 75,
            "width_sq": 75,
            "url_t": "https:\/\/farm4.staticflickr.com\/3753\/14278310611_828b178458_t.jpg",
            "height_t": 66,
            "width_t": 100,
            "url_s": "https:\/\/farm4.staticflickr.com\/3753\/14278310611_828b178458_m.jpg",
            "height_s": "158",
            "width_s": "240",
            "url_q": "https:\/\/farm4.staticflickr.com\/3753\/14278310611_828b178458_q.jpg",
            "height_q": "150",
            "width_q": "150",
            "url_m": "https:\/\/farm4.staticflickr.com\/3753\/14278310611_828b178458.jpg",
            "height_m": "329",
            "width_m": "500",
            "url_n": "https:\/\/farm4.staticflickr.com\/3753\/14278310611_828b178458_n.jpg",
            "height_n": "211",
            "width_n": "320",
            "url_z": "https:\/\/farm4.staticflickr.com\/3753\/14278310611_828b178458_z.jpg",
            "height_z": "421",
            "width_z": "640",
            "url_c": "https:\/\/farm4.staticflickr.com\/3753\/14278310611_828b178458_c.jpg",
            "height_c": "527",
            "width_c": "800",
            "url_l": "https:\/\/farm4.staticflickr.com\/3753\/14278310611_828b178458_b.jpg",
            "height_l": "674",
            "width_l": "1024",
            "pathalias": "pape"
        },
        {
            "id": "14093980309",
            "secret": "e1916fcb3d",
            "server": "3794",
            "farm": 4,
            "owner": "66435997@N02",
            "username": "Danielle Bednarczyk",
            "title": "Misty Morning",
            "ispublic": 1,
            "isfriend": 0,
            "isfamily": 0,
            "license": 0,
            "description": {
                "_content": ""
            },
            "dateupload": "1401169678",
            "lastupdate": "1401200489",
            "datetaken": "2012-08-18 17:23:37",
            "datetakengranularity": 0,
            "ownername": "Danielle Bednarczyk",
            "iconserver": "3770",
            "iconfarm": 4,
            "views": 29,
            "tags": "camping camp blackandwhite bw mist mountain bird nature beautiful birds silhouette fog landscape outdoors flying colorado hiking roadtrip hike adventure explore co serene exploration",
            "machine_tags": "",
            "latitude": 0,
            "longitude": 0,
            "accuracy": 0,
            "context": 0,
            "media": "photo",
            "media_status": "ready",
            "url_sq": "https:\/\/farm4.staticflickr.com\/3794\/14093980309_e1916fcb3d_s.jpg",
            "height_sq": 75,
            "width_sq": 75,
            "url_t": "https:\/\/farm4.staticflickr.com\/3794\/14093980309_e1916fcb3d_t.jpg",
            "height_t": 51,
            "width_t": 100,
            "url_s": "https:\/\/farm4.staticflickr.com\/3794\/14093980309_e1916fcb3d_m.jpg",
            "height_s": "123",
            "width_s": "240",
            "url_q": "https:\/\/farm4.staticflickr.com\/3794\/14093980309_e1916fcb3d_q.jpg",
            "height_q": "150",
            "width_q": "150",
            "url_m": "https:\/\/farm4.staticflickr.com\/3794\/14093980309_e1916fcb3d.jpg",
            "height_m": "256",
            "width_m": "500",
            "url_n": "https:\/\/farm4.staticflickr.com\/3794\/14093980309_e1916fcb3d_n.jpg",
            "height_n": "164",
            "width_n": "320",
            "url_z": "https:\/\/farm4.staticflickr.com\/3794\/14093980309_e1916fcb3d_z.jpg",
            "height_z": "328",
            "width_z": "640",
            "url_c": "https:\/\/farm4.staticflickr.com\/3794\/14093980309_e1916fcb3d_c.jpg",
            "height_c": "410",
            "width_c": "800",
            "url_l": "https:\/\/farm4.staticflickr.com\/3794\/14093980309_e1916fcb3d_b.jpg",
            "height_l": "525",
            "width_l": "1024",
            "pathalias": "lifeinmotion84"
        },
        {
            "id": "14280638625",
            "secret": "31c94325a0",
            "server": "3804",
            "farm": 4,
            "owner": "28922784@N00",
            "username": "Neven Mrgan",
            "title": "Krempite",
            "ispublic": 1,
            "isfriend": 0,
            "isfamily": 0,
            "license": 1,
            "description": {
                "_content": ""
            },
            "o_width": "2272",
            "o_height": "2272",
            "dateupload": "1401169531",
            "lastupdate": "1401169765",
            "datetaken": "2014-05-26 22:45:31",
            "datetakengranularity": 0,
            "ownername": "Neven Mrgan",
            "iconserver": "5465",
            "iconfarm": 6,
            "views": 39,
            "tags": "",
            "machine_tags": "",
            "originalsecret": "4df3511c68",
            "originalformat": "jpg",
            "latitude": 0,
            "longitude": 0,
            "accuracy": 0,
            "context": 0,
            "media": "photo",
            "media_status": "ready",
            "url_sq": "https:\/\/farm4.staticflickr.com\/3804\/14280638625_31c94325a0_s.jpg",
            "height_sq": 75,
            "width_sq": 75,
            "url_t": "https:\/\/farm4.staticflickr.com\/3804\/14280638625_31c94325a0_t.jpg",
            "height_t": 100,
            "width_t": 100,
            "url_s": "https:\/\/farm4.staticflickr.com\/3804\/14280638625_31c94325a0_m.jpg",
            "height_s": "240",
            "width_s": "240",
            "url_q": "https:\/\/farm4.staticflickr.com\/3804\/14280638625_31c94325a0_q.jpg",
            "height_q": "150",
            "width_q": "150",
            "url_m": "https:\/\/farm4.staticflickr.com\/3804\/14280638625_31c94325a0.jpg",
            "height_m": "500",
            "width_m": "500",
            "url_n": "https:\/\/farm4.staticflickr.com\/3804\/14280638625_31c94325a0_n.jpg",
            "height_n": "320",
            "width_n": "320",
            "url_z": "https:\/\/farm4.staticflickr.com\/3804\/14280638625_31c94325a0_z.jpg",
            "height_z": "640",
            "width_z": "640",
            "url_c": "https:\/\/farm4.staticflickr.com\/3804\/14280638625_31c94325a0_c.jpg",
            "height_c": "800",
            "width_c": "800",
            "url_l": "https:\/\/farm4.staticflickr.com\/3804\/14280638625_31c94325a0_b.jpg",
            "height_l": "1024",
            "width_l": "1024",
            "url_o": "https:\/\/farm4.staticflickr.com\/3804\/14280638625_4df3511c68_o.jpg",
            "height_o": "2272",
            "width_o": "2272",
            "pathalias": "neven"
        },
        {
            "id": "14280637135",
            "secret": "a2d914f359",
            "server": "2915",
            "farm": 3,
            "owner": "28922784@N00",
            "username": "Neven Mrgan",
            "title": "Ćevapi",
            "ispublic": 1,
            "isfriend": 0,
            "isfamily": 0,
            "license": 1,
            "description": {
                "_content": ""
            },
            "o_width": "2072",
            "o_height": "2072",
            "dateupload": "1401169508",
            "lastupdate": "1401177511",
            "datetaken": "2014-05-26 22:45:08",
            "datetakengranularity": 0,
            "ownername": "Neven Mrgan",
            "iconserver": "5465",
            "iconfarm": 6,
            "views": 32,
            "tags": "",
            "machine_tags": "",
            "originalsecret": "81cf465e42",
            "originalformat": "jpg",
            "latitude": 0,
            "longitude": 0,
            "accuracy": 0,
            "context": 0,
            "media": "photo",
            "media_status": "ready",
            "url_sq": "https:\/\/farm3.staticflickr.com\/2915\/14280637135_a2d914f359_s.jpg",
            "height_sq": 75,
            "width_sq": 75,
            "url_t": "https:\/\/farm3.staticflickr.com\/2915\/14280637135_a2d914f359_t.jpg",
            "height_t": 100,
            "width_t": 100,
            "url_s": "https:\/\/farm3.staticflickr.com\/2915\/14280637135_a2d914f359_m.jpg",
            "height_s": "240",
            "width_s": "240",
            "url_q": "https:\/\/farm3.staticflickr.com\/2915\/14280637135_a2d914f359_q.jpg",
            "height_q": "150",
            "width_q": "150",
            "url_m": "https:\/\/farm3.staticflickr.com\/2915\/14280637135_a2d914f359.jpg",
            "height_m": "500",
            "width_m": "500",
            "url_n": "https:\/\/farm3.staticflickr.com\/2915\/14280637135_a2d914f359_n.jpg",
            "height_n": "320",
            "width_n": "320",
            "url_z": "https:\/\/farm3.staticflickr.com\/2915\/14280637135_a2d914f359_z.jpg",
            "height_z": "640",
            "width_z": "640",
            "url_c": "https:\/\/farm3.staticflickr.com\/2915\/14280637135_a2d914f359_c.jpg",
            "height_c": "800",
            "width_c": "800",
            "url_l": "https:\/\/farm3.staticflickr.com\/2915\/14280637135_a2d914f359_b.jpg",
            "height_l": "1024",
            "width_l": "1024",
            "url_o": "https:\/\/farm3.staticflickr.com\/2915\/14280637135_81cf465e42_o.jpg",
            "height_o": "2072",
            "width_o": "2072",
            "pathalias": "neven"
        }
    ],
    "total": "799",
    "page": 1,
    "per_page": 10,
    "pages": 80
}, "stat": "ok" }