{ "photos": {
    "page": 1,
    "pages": 4,
    "perpage": 5,
    "total": 17,
    "photo": [
        {
            "id": "14090003790",
            "owner": "85853333@N00",
            "secret": "27b86fe896",
            "server": "3730",
            "farm": 4,
            "title": "550 540",
            "ispublic": 1,
            "isfriend": 0,
            "isfamily": 0,
            "license": 2,
            "description": {
                "_content": ""
            },
            "o_width": "2448",
            "o_height": "2448",
            "dateupload": "1401130664",
            "lastupdate": "1401200322",
            "datetaken": "2013-09-17 16:37:16",
            "datetakengranularity": 0,
            "ownername": "Jeremy Brooks",
            "iconserver": "5332",
            "iconfarm": 6,
            "views": 32,
            "tags": "sanfrancisco california street door usa storefront address iphone sanfranciscocounty",
            "machine_tags": "",
            "originalsecret": "c57e4fb02e",
            "originalformat": "jpg",
            "latitude": 0,
            "longitude": 0,
            "accuracy": 0,
            "context": 0,
            "media": "photo",
            "media_status": "ready",
            "url_sq": "https:\/\/farm4.staticflickr.com\/3730\/14090003790_27b86fe896_s.jpg",
            "height_sq": 75,
            "width_sq": 75,
            "url_t": "https:\/\/farm4.staticflickr.com\/3730\/14090003790_27b86fe896_t.jpg",
            "height_t": 100,
            "width_t": 100,
            "url_s": "https:\/\/farm4.staticflickr.com\/3730\/14090003790_27b86fe896_m.jpg",
            "height_s": "240",
            "width_s": "240",
            "url_q": "https:\/\/farm4.staticflickr.com\/3730\/14090003790_27b86fe896_q.jpg",
            "height_q": "150",
            "width_q": "150",
            "url_m": "https:\/\/farm4.staticflickr.com\/3730\/14090003790_27b86fe896.jpg",
            "height_m": "500",
            "width_m": "500",
            "url_n": "https:\/\/farm4.staticflickr.com\/3730\/14090003790_27b86fe896_n.jpg",
            "height_n": "320",
            "width_n": "320",
            "url_z": "https:\/\/farm4.staticflickr.com\/3730\/14090003790_27b86fe896_z.jpg",
            "height_z": "640",
            "width_z": "640",
            "url_c": "https:\/\/farm4.staticflickr.com\/3730\/14090003790_27b86fe896_c.jpg",
            "height_c": "800",
            "width_c": "800",
            "url_l": "https:\/\/farm4.staticflickr.com\/3730\/14090003790_27b86fe896_b.jpg",
            "height_l": "1024",
            "width_l": "1024",
            "url_o": "https:\/\/farm4.staticflickr.com\/3730\/14090003790_c57e4fb02e_o.jpg",
            "height_o": "2448",
            "width_o": "2448",
            "pathalias": "jeremybrooks"
        },
        {
            "id": "14255762626",
            "owner": "85853333@N00",
            "secret": "590f6b72ae",
            "server": "3722",
            "farm": 4,
            "title": "Sleeping With Eyes Open",
            "ispublic": 1,
            "isfriend": 0,
            "isfamily": 0,
            "license": 2,
            "description": {
                "_content": "<a href=\"http:\/\/photochallenge.org\/2013\/12\/13\/2014-will-be\/\" rel=\"nofollow\">2014 Challenge<\/a>, Week 20\/52: LANDSCAPE - MINIMALISM"
            },
            "o_width": "3657",
            "o_height": "5485",
            "dateupload": "1401150705",
            "lastupdate": "1401198012",
            "datetaken": "2014-05-24 17:11:13",
            "datetakengranularity": 0,
            "ownername": "Jeremy Brooks",
            "iconserver": "5332",
            "iconfarm": 6,
            "views": "189",
            "tags": "california sky usa water landscape bay richmond minimalism photochallenge contracostacounty 2014challenge",
            "machine_tags": "",
            "originalsecret": "80846b32e2",
            "originalformat": "jpg",
            "latitude": 0,
            "longitude": 0,
            "accuracy": 0,
            "context": 0,
            "media": "photo",
            "media_status": "ready",
            "url_sq": "https:\/\/farm4.staticflickr.com\/3722\/14255762626_590f6b72ae_s.jpg",
            "height_sq": 75,
            "width_sq": 75,
            "url_t": "https:\/\/farm4.staticflickr.com\/3722\/14255762626_590f6b72ae_t.jpg",
            "height_t": 100,
            "width_t": 67,
            "url_s": "https:\/\/farm4.staticflickr.com\/3722\/14255762626_590f6b72ae_m.jpg",
            "height_s": "240",
            "width_s": "160",
            "url_q": "https:\/\/farm4.staticflickr.com\/3722\/14255762626_590f6b72ae_q.jpg",
            "height_q": "150",
            "width_q": "150",
            "url_m": "https:\/\/farm4.staticflickr.com\/3722\/14255762626_590f6b72ae.jpg",
            "height_m": "500",
            "width_m": "333",
            "url_n": "https:\/\/farm4.staticflickr.com\/3722\/14255762626_590f6b72ae_n.jpg",
            "height_n": "320",
            "width_n": "213",
            "url_z": "https:\/\/farm4.staticflickr.com\/3722\/14255762626_590f6b72ae_z.jpg",
            "height_z": "640",
            "width_z": "427",
            "url_c": "https:\/\/farm4.staticflickr.com\/3722\/14255762626_590f6b72ae_c.jpg",
            "height_c": "800",
            "width_c": "534",
            "url_l": "https:\/\/farm4.staticflickr.com\/3722\/14255762626_590f6b72ae_b.jpg",
            "height_l": "1024",
            "width_l": "683",
            "url_o": "https:\/\/farm4.staticflickr.com\/3722\/14255762626_80846b32e2_o.jpg",
            "height_o": "5485",
            "width_o": "3657",
            "pathalias": "jeremybrooks"
        },
        {
            "id": "14090436767",
            "owner": "85853333@N00",
            "secret": "2281ddc249",
            "server": "5072",
            "farm": 6,
            "title": "Window Seat",
            "ispublic": 1,
            "isfriend": 0,
            "isfamily": 0,
            "license": 2,
            "description": {
                "_content": ""
            },
            "o_width": "2448",
            "o_height": "2448",
            "dateupload": "1401133673",
            "lastupdate": "1401177531",
            "datetaken": "2014-05-16 18:12:43",
            "datetakengranularity": 0,
            "ownername": "Jeremy Brooks",
            "iconserver": "5332",
            "iconfarm": 6,
            "views": "160",
            "tags": "sanfrancisco california street blackandwhite bw usa person blackwhite crutches iphone sanfranciscocounty 44montgomery hipstamatic",
            "machine_tags": "",
            "originalsecret": "1f5c2147bb",
            "originalformat": "jpg",
            "latitude": 0,
            "longitude": 0,
            "accuracy": 0,
            "context": 0,
            "media": "photo",
            "media_status": "ready",
            "url_sq": "https:\/\/farm6.staticflickr.com\/5072\/14090436767_2281ddc249_s.jpg",
            "height_sq": 75,
            "width_sq": 75,
            "url_t": "https:\/\/farm6.staticflickr.com\/5072\/14090436767_2281ddc249_t.jpg",
            "height_t": 100,
            "width_t": 100,
            "url_s": "https:\/\/farm6.staticflickr.com\/5072\/14090436767_2281ddc249_m.jpg",
            "height_s": "240",
            "width_s": "240",
            "url_q": "https:\/\/farm6.staticflickr.com\/5072\/14090436767_2281ddc249_q.jpg",
            "height_q": "150",
            "width_q": "150",
            "url_m": "https:\/\/farm6.staticflickr.com\/5072\/14090436767_2281ddc249.jpg",
            "height_m": "500",
            "width_m": "500",
            "url_n": "https:\/\/farm6.staticflickr.com\/5072\/14090436767_2281ddc249_n.jpg",
            "height_n": "320",
            "width_n": "320",
            "url_z": "https:\/\/farm6.staticflickr.com\/5072\/14090436767_2281ddc249_z.jpg",
            "height_z": "640",
            "width_z": "640",
            "url_c": "https:\/\/farm6.staticflickr.com\/5072\/14090436767_2281ddc249_c.jpg",
            "height_c": "800",
            "width_c": "800",
            "url_l": "https:\/\/farm6.staticflickr.com\/5072\/14090436767_2281ddc249_b.jpg",
            "height_l": "1024",
            "width_l": "1024",
            "url_o": "https:\/\/farm6.staticflickr.com\/5072\/14090436767_1f5c2147bb_o.jpg",
            "height_o": "2448",
            "width_o": "2448",
            "pathalias": "jeremybrooks"
        },
        {
            "id": "14253752496",
            "owner": "85853333@N00",
            "secret": "a5f0c06edb",
            "server": "3778",
            "farm": 4,
            "title": "Pier Sunset",
            "ispublic": 1,
            "isfriend": 0,
            "isfamily": 0,
            "license": 2,
            "description": {
                "_content": ""
            },
            "o_width": "5421",
            "o_height": "3614",
            "dateupload": "1401132670",
            "lastupdate": "1401161040",
            "datetaken": "2014-02-16 19:15:40",
            "datetakengranularity": 0,
            "ownername": "Jeremy Brooks",
            "iconserver": "5332",
            "iconfarm": 6,
            "views": "114",
            "tags": "california bridge sunset usa water clouds bay berkeley pier scenery goldengatebridge goldengate alamedacounty",
            "machine_tags": "",
            "originalsecret": "ac6b80d4bc",
            "originalformat": "jpg",
            "latitude": 0,
            "longitude": 0,
            "accuracy": 0,
            "context": 0,
            "media": "photo",
            "media_status": "ready",
            "url_sq": "https:\/\/farm4.staticflickr.com\/3778\/14253752496_a5f0c06edb_s.jpg",
            "height_sq": 75,
            "width_sq": 75,
            "url_t": "https:\/\/farm4.staticflickr.com\/3778\/14253752496_a5f0c06edb_t.jpg",
            "height_t": 67,
            "width_t": 100,
            "url_s": "https:\/\/farm4.staticflickr.com\/3778\/14253752496_a5f0c06edb_m.jpg",
            "height_s": "160",
            "width_s": "240",
            "url_q": "https:\/\/farm4.staticflickr.com\/3778\/14253752496_a5f0c06edb_q.jpg",
            "height_q": "150",
            "width_q": "150",
            "url_m": "https:\/\/farm4.staticflickr.com\/3778\/14253752496_a5f0c06edb.jpg",
            "height_m": "333",
            "width_m": "500",
            "url_n": "https:\/\/farm4.staticflickr.com\/3778\/14253752496_a5f0c06edb_n.jpg",
            "height_n": "213",
            "width_n": "320",
            "url_z": "https:\/\/farm4.staticflickr.com\/3778\/14253752496_a5f0c06edb_z.jpg",
            "height_z": "427",
            "width_z": "640",
            "url_c": "https:\/\/farm4.staticflickr.com\/3778\/14253752496_a5f0c06edb_c.jpg",
            "height_c": "534",
            "width_c": "800",
            "url_l": "https:\/\/farm4.staticflickr.com\/3778\/14253752496_a5f0c06edb_b.jpg",
            "height_l": "683",
            "width_l": "1024",
            "url_o": "https:\/\/farm4.staticflickr.com\/3778\/14253752496_ac6b80d4bc_o.jpg",
            "height_o": "3614",
            "width_o": "5421",
            "pathalias": "jeremybrooks"
        },
        {
            "id": "14253794576",
            "owner": "85853333@N00",
            "secret": "c24fb64393",
            "server": "3677",
            "farm": 4,
            "title": "Productivity",
            "ispublic": 1,
            "isfriend": 0,
            "isfamily": 0,
            "license": 2,
            "description": {
                "_content": ""
            },
            "o_width": "2448",
            "o_height": "2448",
            "dateupload": "1401132987",
            "lastupdate": "1401161037",
            "datetaken": "2013-11-18 09:08:39",
            "datetakengranularity": 0,
            "ownername": "Jeremy Brooks",
            "iconserver": "5332",
            "iconfarm": 6,
            "views": "139",
            "tags": "california people blackandwhite bw usa umbrella berkeley blackwhite candid bart transit alamedacounty iphone",
            "machine_tags": "",
            "originalsecret": "84932c70cf",
            "originalformat": "jpg",
            "latitude": 0,
            "longitude": 0,
            "accuracy": 0,
            "context": 0,
            "media": "photo",
            "media_status": "ready",
            "url_sq": "https:\/\/farm4.staticflickr.com\/3677\/14253794576_c24fb64393_s.jpg",
            "height_sq": 75,
            "width_sq": 75,
            "url_t": "https:\/\/farm4.staticflickr.com\/3677\/14253794576_c24fb64393_t.jpg",
            "height_t": 100,
            "width_t": 100,
            "url_s": "https:\/\/farm4.staticflickr.com\/3677\/14253794576_c24fb64393_m.jpg",
            "height_s": "240",
            "width_s": "240",
            "url_q": "https:\/\/farm4.staticflickr.com\/3677\/14253794576_c24fb64393_q.jpg",
            "height_q": "150",
            "width_q": "150",
            "url_m": "https:\/\/farm4.staticflickr.com\/3677\/14253794576_c24fb64393.jpg",
            "height_m": "500",
            "width_m": "500",
            "url_n": "https:\/\/farm4.staticflickr.com\/3677\/14253794576_c24fb64393_n.jpg",
            "height_n": "320",
            "width_n": "320",
            "url_z": "https:\/\/farm4.staticflickr.com\/3677\/14253794576_c24fb64393_z.jpg",
            "height_z": "640",
            "width_z": "640",
            "url_c": "https:\/\/farm4.staticflickr.com\/3677\/14253794576_c24fb64393_c.jpg",
            "height_c": "800",
            "width_c": "800",
            "url_l": "https:\/\/farm4.staticflickr.com\/3677\/14253794576_c24fb64393_b.jpg",
            "height_l": "1024",
            "width_l": "1024",
            "url_o": "https:\/\/farm4.staticflickr.com\/3677\/14253794576_84932c70cf_o.jpg",
            "height_o": "2448",
            "width_o": "2448",
            "pathalias": "jeremybrooks"
        }
    ]
}, "stat": "ok" }